{
	"additionalNodes": [ {
		"children": [ {
			"children": [],
			"id": "SLADEJyHAbBeHJ5Oyqxyc8jDVjRcqXxq",
			"nodeType": "luaCommand",
			"parameters": [ {
				"name": "thisUnits",
				"value": "lugersNotInBase"
			}, {
				"name": "firestate",
				"value": "2"
			}, {
				"name": "scriptName",
				"value": "nota_sch_exam.setFiremodeLuger"
			} ],
			"scriptName": "nota_sch_exam.setFiremodeLuger"
		}, {
			"children": [],
			"id": "DSlW8bNgG53ES5nuiIQdijuNhxJFk9bn",
			"nodeType": "luaCommand",
			"parameters": [ {
				"name": "groundUnits",
				"value": "lugersNotInBase"
			}, {
				"name": "scriptName",
				"value": "nota_schimper_homeworkassignments.ttdr_moveToOwnPos"
			} ],
			"scriptName": "nota_schimper_homeworkassignments.ttdr_moveToOwnPos"
		}, {
			"children": [],
			"id": "fTi8yBGXRGPtXvujak5hb1tTLNWQwxnp",
			"nodeType": "success",
			"parameters": []
		} ],
		"id": "WDwmE4lmgI8cArUOJX4LRv2S8gIwkI2t",
		"nodeType": "sequence",
		"parameters": []
	}, {
		"children": [],
		"id": "4KLjrxBypKl8hnGA1hqYBzkS3ncSkxS9",
		"nodeType": "luaCommand",
		"parameters": [ {
			"name": "var",
			"value": "shikas"
		}, {
			"name": "value",
			"value": "nota_sch_exam.GetEmptyTable()"
		}, {
			"name": "scriptName",
			"value": "store"
		} ],
		"scriptName": "store"
	}, {
		"children": [ {
			"children": [],
			"id": "cNCUq44qARRMxjLHHJLXZgcKE6gLjUHM",
			"nodeType": "luaCommand",
			"parameters": [ {
				"name": "condition",
				"value": "true"
			}, {
				"name": "scriptName",
				"value": "waitUntil"
			} ],
			"scriptName": "waitUntil"
		} ],
		"id": "EXv1C4EOUBXLu2h0DfF4kguBxyzkj7bT",
		"nodeType": "luaCondition",
		"parameters": [ {
			"name": "expression",
			"value": "mavericksAtCurrentSP ~= nil and #mavericksAtCurrentSP > 0"
		}, {
			"name": "repeat",
			"value": "true"
		} ]
	}, {
		"children": [ {
			"children": [],
			"id": "yg9HX8mhAat9wdfR9JSykrIORZc7tiYw",
			"nodeType": "luaCommand",
			"parameters": [ {
				"name": "var",
				"value": "enemyBuildings"
			}, {
				"name": "value",
				"value": "nota_sch_exam.DetectEnemyBuildings(enemyBuildings)"
			}, {
				"name": "scriptName",
				"value": "store"
			} ],
			"scriptName": "store"
		}, {
			"children": [],
			"id": "AvkppHj6WbwRVxjknaPW9E5AmMTSdatH",
			"nodeType": "success",
			"parameters": []
		} ],
		"id": "U4EZpooGQdcr20i8knqVf8CmTfoKoIjt",
		"nodeType": "luaCondition",
		"parameters": [ {
			"name": "expression",
			"value": "#enemyBuildings <= 2"
		}, {
			"name": "repeat",
			"value": "true"
		} ]
	}, {
		"children": [],
		"id": "bcFTc8J1FurZvHVdq01qlccHsr6vcMut",
		"nodeType": "reference",
		"parameters": [ {
			"name": "behaviourName",
			"value": "nota_sch_exam.distroyBase"
		} ],
		"referenceInputs": [ {
			"name": "enemyBasePos",
			"value": "enemyBasePos"
		}, {
			"name": "enemyBuildings",
			"value": "enemyBuildings"
		}, {
			"name": "allShikas",
			"value": "shikas"
		}, {
			"name": "seer",
			"value": "seer[1]"
		}, {
			"name": "topSPs",
			"value": "missionInfo.corridors.Top.points"
		}, {
			"name": "bottomSPs",
			"value": "missionInfo.corridors.Bottom.points"
		} ],
		"referenceOutputs": []
	}, {
		"children": [ {
			"children": [],
			"id": "qdNpslPQ5T2YpRevlP5u2RjUL9YLcXDZ",
			"nodeType": "luaCommand",
			"parameters": [ {
				"name": "var",
				"value": "shikaPos"
			}, {
				"name": "value",
				"value": "nota_sch_exam.DetectShikaPos(shikas)"
			}, {
				"name": "scriptName",
				"value": "store"
			} ],
			"scriptName": "store"
		}, {
			"children": [],
			"id": "oc69fUukuqI2x3BGLl4qEKBJvyaK768M",
			"nodeType": "success",
			"parameters": []
		} ],
		"id": "OMYVMQIsdwOSBcQIOnHDIDnR7fMcTBXe",
		"nodeType": "luaCondition",
		"parameters": [ {
			"name": "expression",
			"value": "shikas ~= nil"
		}, {
			"name": "repeat",
			"value": "true"
		} ]
	} ],
	"additionalParameters": {
		"root": {
			"height": 88,
			"width": 180
		}
	},
	"inputs": [],
	"outputs": [],
	"properties": {
		"0GIUdQ4oeFPeV0bdGfUqeKSbvqKSWYU8": {
			"height": 94,
			"title": "store",
			"width": 469,
			"x": 494,
			"y": -593
		},
		"1DD47b14RkN33Gym6xqfNb5q4b4YcvJV": {
			"height": 214,
			"title": "reference",
			"width": 437,
			"x": 1598,
			"y": 978
		},
		"1TrNFcM9rxjgGN5zR1fhWKj2MytQuH4Z": {
			"height": 94,
			"title": "store",
			"width": 469,
			"x": 1881,
			"y": 363
		},
		"1nu9Xa4Sfav6em9rKHpkCw2CHQ0QsuLL": {
			"height": 60,
			"title": "sequence",
			"width": 143,
			"x": 4575,
			"y": 1167
		},
		"1ze62xP7UDuky8qtjdsCJgBIKKa9uQq9": {
			"height": 94,
			"title": "store",
			"width": 570,
			"x": 1875,
			"y": 538
		},
		"31KmOcwBZfRnXxXjwd8a7xxWuer0Dumc": {
			"height": 94,
			"title": "store",
			"width": 570,
			"x": 2770,
			"y": -1029
		},
		"3Pbr9FuwthUdkPzVm1qSABJoSDBLgVuz": {
			"height": 94,
			"title": "store",
			"width": 469,
			"x": 492,
			"y": -413
		},
		"3U1ij8rfYTTYOBiFTCrHgINOwZRVE5tt": {
			"height": 60,
			"title": "sequence",
			"width": 143,
			"x": 2489,
			"y": 162
		},
		"3qDh8XvXrrwo0b5WEo446ZWiP8K6Lota": {
			"height": 90,
			"title": "luaCondition",
			"width": 194,
			"x": 3132,
			"y": -711
		},
		"4KLjrxBypKl8hnGA1hqYBzkS3ncSkxS9": {
			"height": 94,
			"title": "store",
			"width": 469,
			"x": 486,
			"y": -509
		},
		"4tVjr8nJK06wzwIu5ZAmk96piRXwbIax": {
			"height": 94,
			"title": "store",
			"width": 570,
			"x": 3358,
			"y": -233
		},
		"4wv5IpeRrjudXw2FrN6oMUKGFmYjgEXz": {
			"height": 90,
			"title": "luaCondition",
			"width": 789,
			"x": 1757,
			"y": 2793
		},
		"4z05y0s23vJEKk977r3eB8YDnAcxTt0P": {
			"height": 94,
			"title": "store",
			"width": 469,
			"x": 494,
			"y": -701
		},
		"5F5XteqNdL6EkHz3PHngNnDTa6WdnmhD": {
			"height": 90,
			"title": "luaCondition",
			"width": 552,
			"x": 2880,
			"y": 1736
		},
		"5dPJ7mOo64KVxzxERtVgW5BZmiYa4Lo2": {
			"height": 60,
			"title": "repeat",
			"width": 131,
			"x": 1757,
			"y": -21
		},
		"6keAj7YxfOOZsTi1aTB89VHRMuAtrAr7": {
			"height": 94,
			"title": "store",
			"width": 702,
			"x": 4637,
			"y": -447
		},
		"74AiArmxpcrbjYZR6ovJe0VpOZZNt3cz": {
			"height": 94,
			"title": "store",
			"width": 469,
			"x": 2778,
			"y": -1804
		},
		"8TsxQeCRlcmqaYudg2SrhedCmQ8YQ2R7": {
			"height": 94,
			"title": "store",
			"width": 1058,
			"x": 4105,
			"y": -797
		},
		"AId5yTeNOE5s6iSw9GbVN2H8ffJXuRJ2": {
			"height": 60,
			"title": "repeat",
			"width": 131,
			"x": 2484,
			"y": 1740
		},
		"AvkppHj6WbwRVxjknaPW9E5AmMTSdatH": {
			"height": 54,
			"title": "success",
			"width": 132,
			"x": 3057,
			"y": 55
		},
		"BofbCOBQAzFORGu0yhIXHdrV9zfeioBZ": {
			"height": 90,
			"title": "luaCondition",
			"width": 698,
			"x": 3731,
			"y": 1259
		},
		"CMZVYbgcyuK4y4PjhOeiAFSqdWC6B2Q3": {
			"height": 90,
			"title": "luaCondition",
			"width": 793,
			"x": 2696,
			"y": 2026
		},
		"CW36d6gjXlTqK5vlycPLuhGCA34SMPXB": {
			"height": 70,
			"title": "parallel",
			"width": 202,
			"x": 772,
			"y": 16
		},
		"CvKCHrDv3IPyFpKsrwsTUb6HxH1kJJ95": {
			"height": 94,
			"title": "store",
			"width": 570,
			"x": 2780,
			"y": -191
		},
		"DP7JNzTXdMhXCjA0nW6UkQMQt16enGd2": {
			"height": 60,
			"title": "repeat",
			"width": 131,
			"x": 1075,
			"y": -60
		},
		"DSlW8bNgG53ES5nuiIQdijuNhxJFk9bn": {
			"height": 72,
			"title": "nota_schimper_homeworkassignments.ttdr_moveToOwnPos",
			"width": 447,
			"x": 4144,
			"y": 2013
		},
		"EXv1C4EOUBXLu2h0DfF4kguBxyzkj7bT": {
			"height": 90,
			"title": "luaCondition",
			"width": 432,
			"x": 4891,
			"y": 1194
		},
		"EbLy1nRObui4txGo1WMNSnDqB1rLKoTZ": {
			"height": 60,
			"title": "repeat",
			"width": 131,
			"x": 1362,
			"y": 1015
		},
		"FS4JdnsBeXfKqIHTXdr6SrWRf7sOwb4u": {
			"height": 60,
			"title": "repeat",
			"width": 131,
			"x": 2432,
			"y": 1513
		},
		"HRU7JXoncREXwmL1ra2GcbDuqgatXrkL": {
			"height": 54,
			"title": "success",
			"width": 132,
			"x": 2307,
			"y": 298
		},
		"I5nxEP6iOk99DNIhBknRWqE1YxgpuB3r": {
			"height": 94,
			"title": "store",
			"width": 610,
			"x": 3472,
			"y": -335
		},
		"JbkYpB8K3YpW1zHfQqsNMivN5oB3pWbB": {
			"height": 54,
			"title": "success",
			"width": 132,
			"x": 2675,
			"y": 2980
		},
		"Jr4C9gjOC9MlexfaH9sL7NrapZjMCfJ3": {
			"height": 94,
			"title": "store",
			"width": 570,
			"x": 2772,
			"y": -482
		},
		"LMkBjwCby1YeoBKYFKWW2cKzob9npxLR": {
			"height": 94,
			"title": "store",
			"width": 469,
			"x": 487,
			"y": -786
		},
		"LOzt3qrhLFoR8dFsNHslT9IuOaNvQYfP": {
			"height": 60,
			"title": "repeat",
			"width": 131,
			"x": 1532,
			"y": 2795
		},
		"LlqSM8Sx96Ll8O8bbUBq08uBdIMtColM": {
			"height": 72,
			"title": "waitUntil",
			"width": 150,
			"x": 2462,
			"y": 813
		},
		"M6BdBD8Xy1MBGVTPykXdtuSpewyFuNAH": {
			"height": 90,
			"title": "luaCondition",
			"width": 529,
			"x": 1729,
			"y": 237
		},
		"MiaqdrnWdJMog4bunxd9QxFzSHi0EUrY": {
			"height": 60,
			"title": "repeat",
			"width": 131,
			"x": 1328,
			"y": 33
		},
		"NAccQLyV0j5roEm1JMNB2jIgzKHIk9tl": {
			"height": 90,
			"title": "luaCondition",
			"width": 1175,
			"x": 2898,
			"y": 1495
		},
		"NIzTsZLFIp4G7cBzhwoqNoqiY43FtILx": {
			"height": 60,
			"title": "sequence",
			"width": 143,
			"x": 267,
			"y": 9
		},
		"Nm8zgHMdKpPj1PUMyxUiz7BD7piPFuGL": {
			"height": 60,
			"title": "repeat",
			"width": 131,
			"x": 1354,
			"y": 821
		},
		"OMYVMQIsdwOSBcQIOnHDIDnR7fMcTBXe": {
			"height": 90,
			"title": "luaCondition",
			"width": 194,
			"x": 3740,
			"y": -599
		},
		"Qd3odEDm8rIunuqpAJLkT1Q16al8N9uM": {
			"height": 60,
			"title": "repeat",
			"width": 131,
			"x": 2424,
			"y": 1279
		},
		"Rbne3MkJ6FiWyjRn4gcpCcedqBqYyFnL": {
			"height": 94,
			"title": "store",
			"width": 570,
			"x": 2788,
			"y": -568
		},
		"RdLaGUEE0cHR7qERescbzI7X4TbBnHbK": {
			"height": 94,
			"title": "store",
			"width": 469,
			"x": 498,
			"y": -207
		},
		"RfaaxEXI9YUYmqdo7HAPAQYQbFdxm3nZ": {
			"height": 90,
			"title": "luaCondition",
			"width": 346,
			"x": 4181,
			"y": -429
		},
		"SLADEJyHAbBeHJ5Oyqxyc8jDVjRcqXxq": {
			"height": 92,
			"title": "nota_sch_exam.setFiremodeLuger",
			"width": 283,
			"x": 4140,
			"y": 1921
		},
		"SeQTR4dilm6chCzc60Ul0qBjwh5fZzyp": {
			"height": 94,
			"title": "store",
			"width": 570,
			"x": 2914,
			"y": 187
		},
		"TRGdlP30TFA3HG9zd0CS2s6qdkNEBYxb": {
			"height": 90,
			"title": "luaCondition",
			"width": 233,
			"x": 3803,
			"y": -798
		},
		"U2HO7dkFFa0el8vpypaOJOf3AAO4jqgJ": {
			"height": 60,
			"title": "repeat",
			"width": 131,
			"x": 2482,
			"y": 1901
		},
		"U4EZpooGQdcr20i8knqVf8CmTfoKoIjt": {
			"height": 90,
			"title": "luaCondition",
			"width": 194,
			"x": 2794,
			"y": -19
		},
		"V051OGMAuuW0zgyqJ9iEseA9QyTaxf5U": {
			"height": 94,
			"title": "nota_schimper_homeworkassignments.ttdr_move",
			"width": 378,
			"x": 5414,
			"y": 1140
		},
		"VNkV2cl19nZr2nrnKTHRjBTJjd5x0C4d": {
			"height": 94,
			"title": "store",
			"width": 570,
			"x": 2778,
			"y": -287
		},
		"Vu3uivNkzQTRXcQmVOhvyNzp1vol3pHT": {
			"height": 54,
			"title": "success",
			"width": 132,
			"x": 3561,
			"y": 1366
		},
		"WDwmE4lmgI8cArUOJX4LRv2S8gIwkI2t": {
			"height": 60,
			"title": "sequence",
			"width": 143,
			"x": 3923,
			"y": 1898
		},
		"WlLslLJpoCUbteuioBGSFFBr9CVGLSyQ": {
			"height": 94,
			"title": "store",
			"width": 570,
			"x": 3384,
			"y": -126
		},
		"WvJZ27ujruJYx8E4EFREfBPTTgIhsFqY": {
			"height": 94,
			"title": "store",
			"width": 919,
			"x": 4140,
			"y": -881
		},
		"X0FgnUrRANy1hkvfjCBasnCiDnAQezyE": {
			"height": 60,
			"title": "repeat",
			"width": 131,
			"x": 1329,
			"y": 175
		},
		"XdL306o7Pn1GYvlaAEM456eBzDnn2OMC": {
			"height": 54,
			"title": "success",
			"width": 132,
			"x": 3478,
			"y": -548
		},
		"XyvDZfFJf1yp0OZaGQZSXGCUZE7ll6KY": {
			"height": 94,
			"title": "store",
			"width": 469,
			"x": 2838,
			"y": -1609
		},
		"a5NdNlO1rGX8N82jRwWd6HCOJ2phKx9g": {
			"height": 94,
			"title": "store",
			"width": 570,
			"x": 3966,
			"y": -178
		},
		"aCn9PNmiYLDQFgyk9DnDTmELH93G5N2a": {
			"height": 60,
			"title": "repeat",
			"width": 131,
			"x": 2290,
			"y": 2526
		},
		"aOqSyqoeOxaBnezZA1crczCgENWUO7oT": {
			"height": 90,
			"title": "luaCondition",
			"width": 609,
			"x": 1238,
			"y": 1448
		},
		"aTyEOs6RDnxEPga7Kxt2MgeJuDDM6Lwy": {
			"height": 94,
			"title": "store",
			"width": 751,
			"x": 3478,
			"y": -1358
		},
		"bM3CwmVhkHfJXnNbuIHRYu2FTtxHuQsm": {
			"height": 90,
			"title": "luaCondition",
			"width": 226,
			"x": 1490,
			"y": 7
		},
		"bbqNv4q0dBllDnjFz0GZmPQAEiawJbvf": {
			"height": 94,
			"title": "store",
			"width": 842,
			"x": 4130,
			"y": -973
		},
		"bcFTc8J1FurZvHVdq01qlccHsr6vcMut": {
			"height": 277,
			"title": "reference",
			"width": 357,
			"x": 2659,
			"y": 2500
		},
		"bp9nGobmJts6k7Yd2uSMIJmIBtQpcuEC": {
			"height": 60,
			"title": "repeat",
			"width": 131,
			"x": 1385,
			"y": 677
		},
		"cNCUq44qARRMxjLHHJLXZgcKE6gLjUHM": {
			"height": 72,
			"title": "waitUntil",
			"width": 150,
			"x": 5418,
			"y": 1300
		},
		"dYVdXbETvsfbeIq2Jk1DIdFk3d2dqNwW": {
			"height": 54,
			"title": "success",
			"width": 132,
			"x": 4164,
			"y": 1620
		},
		"dajGhEDid5UBhKWS8N9BAm29p8WG5i1m": {
			"height": 256,
			"title": "reference",
			"width": 438,
			"x": 3604,
			"y": 1968
		},
		"eQ5wW8HDoD8VaNOp3fsFC8AxviNrlIWX": {
			"height": 70,
			"title": "parallel",
			"width": 202,
			"x": 2146,
			"y": 1490
		},
		"f4QCXCbqxm8iYTy2ljRZcyRh9leQPYcc": {
			"height": 54,
			"title": "success",
			"width": 132,
			"x": 3711,
			"y": 1851
		},
		"fTOxw2Aw3E7Y8iQFGZ3qIOtrRz61WfuJ": {
			"height": 90,
			"title": "luaCondition",
			"width": 467,
			"x": 1892,
			"y": 716
		},
		"fTi8yBGXRGPtXvujak5hb1tTLNWQwxnp": {
			"height": 54,
			"title": "success",
			"width": 132,
			"x": 4149,
			"y": 2087
		},
		"famWenXntcqN1e3rmN0VIK1XSjJJeXB0": {
			"height": 94,
			"title": "store",
			"width": 570,
			"x": 2748,
			"y": -916
		},
		"gnZ3j0r91OfccfEQf9Gio1vh5cJoDRa2": {
			"height": 54,
			"title": "success",
			"width": 132,
			"x": 4494,
			"y": 1389
		},
		"hG6DSz8tQkhjMf6P9X27RoP4xFKdHYjt": {
			"height": 60,
			"title": "repeat",
			"width": 131,
			"x": 3846,
			"y": 1754
		},
		"hxFS3WNMuXCALxTthl5AMX1PCHrFVRzi": {
			"height": 235,
			"title": "reference",
			"width": 372,
			"x": 4064,
			"y": 1682
		},
		"iVtGAxofnvgLF1uRLo56FO9DZ3k4IV7C": {
			"height": 256,
			"title": "reference",
			"width": 481,
			"x": 4451,
			"y": 1480
		},
		"jsngiJy0vNORxdcpe35VLkkT7flhsEcH": {
			"height": 54,
			"title": "success",
			"width": 132,
			"x": 4592,
			"y": -294
		},
		"k45Ffgl5pOPGVDk6JVNhSkqzVPMx4AEk": {
			"height": 94,
			"title": "store",
			"width": 570,
			"x": 2777,
			"y": -382
		},
		"krYHgZ0fQbJXD2l2m14ssZo4bmKYoGU4": {
			"height": 89,
			"title": "luaCondition",
			"width": 435,
			"x": 2801,
			"y": 1268
		},
		"l3pIEKJMCC5yuqvA16TzDGTJFmontOg6": {
			"height": 94,
			"title": "store",
			"width": 570,
			"x": 2822,
			"y": -1446
		},
		"lU5Jcfug3Ulm44TGIylhuuT1IuwYIJTj": {
			"height": 193,
			"title": "reference",
			"width": 277,
			"x": 1551,
			"y": 762
		},
		"mGYk6kqNn8X2hiYhfermaW4SGDdY4Joz": {
			"height": 94,
			"title": "store",
			"width": 570,
			"x": 1877,
			"y": 454
		},
		"mxBXIZ1hnbN4GSQQ2AMnvuHk8VutegBy": {
			"height": 60,
			"title": "repeat",
			"width": 131,
			"x": 2314,
			"y": 213
		},
		"njwkslxSWKglk0RP51SiXbh2TFxfkMLO": {
			"height": 54,
			"title": "success",
			"width": 132,
			"x": 3518,
			"y": 2242
		},
		"o8G0FLWz2pXYvNUeYZUBjEnaY7SIe7la": {
			"height": 54,
			"title": "failure",
			"width": 131,
			"x": 4075,
			"y": -686
		},
		"oc69fUukuqI2x3BGLl4qEKBJvyaK768M": {
			"height": 54,
			"title": "success",
			"width": 132,
			"x": 4028,
			"y": -464
		},
		"poMzUNYQAZq3swwodWWz0AeG1Rfl7Baw": {
			"height": 94,
			"title": "store",
			"width": 570,
			"x": 3408,
			"y": -706
		},
		"qWDq3WVHJsYj8dAnx6t46qfF7WLCP0qK": {
			"height": 94,
			"title": "store",
			"width": 198,
			"x": 2781,
			"y": -1920
		},
		"qdNpslPQ5T2YpRevlP5u2RjUL9YLcXDZ": {
			"height": 94,
			"title": "store",
			"width": 570,
			"x": 4016,
			"y": -594
		},
		"rXBuBqChck5pWqGr2XtfPwnC6FqJTbaI": {
			"height": 92,
			"title": "nota_sch_exam.move",
			"width": 201,
			"x": 2457,
			"y": 697
		},
		"rdUZZluoibI44yQKeaRButbzK5sRFJJM": {
			"height": 60,
			"title": "sequence",
			"width": 143,
			"x": 1551,
			"y": 676
		},
		"snF4uPlE7V294jsf7uV0SOd7tFvrLMeo": {
			"height": 54,
			"title": "nota_sch_exam.manualMissionEnd",
			"width": 286,
			"x": 2676,
			"y": 2807
		},
		"vdIWzOj1Wh3Q1vnkGIQARvOMSgAVkuhm": {
			"height": 94,
			"title": "store",
			"width": 469,
			"x": 2911,
			"y": 272
		},
		"wNlsKByz8LSWFSgRWtOubWptmBi8UiNn": {
			"height": 54,
			"title": "success",
			"width": 132,
			"x": 1776,
			"y": 72
		},
		"yQQuAUcyABnzLswlJYEOYmUIwmRzu1AE": {
			"height": 94,
			"title": "store",
			"width": 469,
			"x": 498,
			"y": -299
		},
		"yg9HX8mhAat9wdfR9JSykrIORZc7tiYw": {
			"height": 94,
			"title": "store",
			"width": 570,
			"x": 3106,
			"y": -46
		},
		"z69o0dOJlkqKm5R51g3KjJBB4HS9H8iG": {
			"height": 60,
			"title": "sequence",
			"width": 143,
			"x": 2549,
			"y": -682
		},
		"zAbuAZR1VfQ5TxJZCubPcjunWH71FDri": {
			"height": 94,
			"title": "store",
			"width": 570,
			"x": 2028,
			"y": -32
		}
	},
	"roles": [ {
		"categories": [ "nota_sch_exam.armmstor" ],
		"name": "Role 0"
	} ],
	"root": {
		"children": [ {
			"children": [],
			"id": "LMkBjwCby1YeoBKYFKWW2cKzob9npxLR",
			"nodeType": "luaCommand",
			"parameters": [ {
				"name": "var",
				"value": "myTeamID"
			}, {
				"name": "value",
				"value": "Spring.GetMyTeamID()"
			}, {
				"name": "scriptName",
				"value": "store"
			} ],
			"scriptName": "store"
		}, {
			"children": [],
			"id": "4z05y0s23vJEKk977r3eB8YDnAcxTt0P",
			"nodeType": "luaCommand",
			"parameters": [ {
				"name": "var",
				"value": "myTeamID"
			}, {
				"name": "value",
				"value": "Spring.GetMyTeamID()"
			}, {
				"name": "scriptName",
				"value": "store"
			} ],
			"scriptName": "store"
		}, {
			"children": [],
			"id": "0GIUdQ4oeFPeV0bdGfUqeKSbvqKSWYU8",
			"nodeType": "luaCommand",
			"parameters": [ {
				"name": "var",
				"value": "enemyUnits"
			}, {
				"name": "value",
				"value": "nota_schimper_homeworkassignments.SenseEnemyUnits()"
			}, {
				"name": "scriptName",
				"value": "store"
			} ],
			"scriptName": "store"
		}, {
			"children": [],
			"id": "3Pbr9FuwthUdkPzVm1qSABJoSDBLgVuz",
			"nodeType": "luaCommand",
			"parameters": [ {
				"name": "var",
				"value": "shikas"
			}, {
				"name": "value",
				"value": "nota_sch_exam.Debugg_ShikaArray()"
			}, {
				"name": "scriptName",
				"value": "store"
			} ],
			"scriptName": "store"
		}, {
			"children": [],
			"id": "yQQuAUcyABnzLswlJYEOYmUIwmRzu1AE",
			"nodeType": "luaCommand",
			"parameters": [ {
				"name": "var",
				"value": "enemyBuildings"
			}, {
				"name": "value",
				"value": "nota_sch_exam.GetEmptyTable()"
			}, {
				"name": "scriptName",
				"value": "store"
			} ],
			"scriptName": "store"
		}, {
			"children": [],
			"id": "RdLaGUEE0cHR7qERescbzI7X4TbBnHbK",
			"nodeType": "luaCommand",
			"parameters": [ {
				"name": "var",
				"value": "checkVariable"
			}, {
				"name": "value",
				"value": "false"
			}, {
				"name": "scriptName",
				"value": "store"
			} ],
			"scriptName": "store"
		}, {
			"children": [ {
				"children": [ {
					"children": [ {
						"children": [],
						"id": "qWDq3WVHJsYj8dAnx6t46qfF7WLCP0qK",
						"nodeType": "luaCommand",
						"parameters": [ {
							"name": "var",
							"value": "missionInfo"
						}, {
							"name": "value",
							"value": "core.MissionInfo()"
						}, {
							"name": "scriptName",
							"value": "store"
						} ],
						"scriptName": "store"
					}, {
						"children": [],
						"id": "74AiArmxpcrbjYZR6ovJe0VpOZZNt3cz",
						"nodeType": "luaCommand",
						"parameters": [ {
							"name": "var",
							"value": "availableMetal"
						}, {
							"name": "value",
							"value": "Spring.GetTeamResources(Spring.GetMyTeamID(), \"metal\")"
						}, {
							"name": "scriptName",
							"value": "store"
						} ],
						"scriptName": "store"
					}, {
						"children": [],
						"id": "XyvDZfFJf1yp0OZaGQZSXGCUZE7ll6KY",
						"nodeType": "luaCommand",
						"parameters": [ {
							"name": "var",
							"value": "myUnits"
						}, {
							"name": "value",
							"value": "Spring.GetTeamUnits(Spring.GetMyTeamID())"
						}, {
							"name": "scriptName",
							"value": "store"
						} ],
						"scriptName": "store"
					}, {
						"children": [],
						"id": "l3pIEKJMCC5yuqvA16TzDGTJFmontOg6",
						"nodeType": "luaCommand",
						"parameters": [ {
							"name": "var",
							"value": "basePosition"
						}, {
							"name": "value",
							"value": "nota_sch_exam.GetBasePosition(myUnits)"
						}, {
							"name": "scriptName",
							"value": "store"
						} ],
						"scriptName": "store"
					}, {
						"children": [],
						"id": "aTyEOs6RDnxEPga7Kxt2MgeJuDDM6Lwy",
						"nodeType": "luaCommand",
						"parameters": [ {
							"name": "var",
							"value": "farestStrongpointMiddle"
						}, {
							"name": "value",
							"value": "DetectFarestStrongpointPos(missionInfo.corridors.Middle.points, basePosition, myAllyID)"
						}, {
							"name": "scriptName",
							"value": "store"
						} ],
						"scriptName": "store"
					}, {
						"children": [],
						"id": "31KmOcwBZfRnXxXjwd8a7xxWuer0Dumc",
						"nodeType": "luaCommand",
						"parameters": [ {
							"name": "var",
							"value": "myAllyID"
						}, {
							"name": "value",
							"value": "Spring.GetMyAllyTeamID()"
						}, {
							"name": "scriptName",
							"value": "store"
						} ],
						"scriptName": "store"
					}, {
						"children": [],
						"id": "bbqNv4q0dBllDnjFz0GZmPQAEiawJbvf",
						"nodeType": "luaCommand",
						"parameters": [ {
							"name": "var",
							"value": "remainingEnemyStrongpointsMiddle"
						}, {
							"name": "value",
							"value": "DetectRemainingEnemyStrongpoints(missionInfo.corridors.Middle.points, myAllyID)"
						}, {
							"name": "scriptName",
							"value": "store"
						} ],
						"scriptName": "store"
					}, {
						"children": [],
						"id": "famWenXntcqN1e3rmN0VIK1XSjJJeXB0",
						"nodeType": "luaCommand",
						"parameters": [ {
							"name": "var",
							"value": "unitsInBase"
						}, {
							"name": "value",
							"value": "nota_sch_exam.GetUnitsInBase(basePosition)"
						}, {
							"name": "scriptName",
							"value": "store"
						} ],
						"scriptName": "store"
					}, {
						"children": [],
						"id": "WvJZ27ujruJYx8E4EFREfBPTTgIhsFqY",
						"nodeType": "luaCommand",
						"parameters": [ {
							"name": "var",
							"value": "nearestEnemyStrongpointMiddle"
						}, {
							"name": "value",
							"value": "DetectNearestEnemyStrongpoint(missionInfo.corridors.Middle.points, farestStrongpointMiddle, remainingEnemyStrongpointsMiddle)"
						}, {
							"name": "scriptName",
							"value": "store"
						} ],
						"scriptName": "store"
					}, {
						"children": [ {
							"children": [],
							"id": "8TsxQeCRlcmqaYudg2SrhedCmQ8YQ2R7",
							"nodeType": "luaCommand",
							"parameters": [ {
								"name": "var",
								"value": "secondFarestStrongpointMiddle"
							}, {
								"name": "value",
								"value": "nota_sch_exam.DetectSecondFarestStrongpointPos(missionInfo.corridors.Middle.points, farestStrongpointMiddle, myAllyID)"
							}, {
								"name": "scriptName",
								"value": "store"
							} ],
							"scriptName": "store"
						}, {
							"children": [],
							"id": "o8G0FLWz2pXYvNUeYZUBjEnaY7SIe7la",
							"nodeType": "failure",
							"parameters": []
						} ],
						"id": "TRGdlP30TFA3HG9zd0CS2s6qdkNEBYxb",
						"nodeType": "luaCondition",
						"parameters": [ {
							"name": "expression",
							"value": "farestStrongpointMiddle ~= nil"
						}, {
							"name": "repeat",
							"value": "true"
						} ]
					}, {
						"children": [ {
							"children": [],
							"id": "poMzUNYQAZq3swwodWWz0AeG1Rfl7Baw",
							"nodeType": "luaCommand",
							"parameters": [ {
								"name": "var",
								"value": "shikas"
							}, {
								"name": "value",
								"value": "nota_sch_exam.DetectShika(shikas)"
							}, {
								"name": "scriptName",
								"value": "store"
							} ],
							"scriptName": "store"
						}, {
							"children": [],
							"id": "XdL306o7Pn1GYvlaAEM456eBzDnn2OMC",
							"nodeType": "success",
							"parameters": []
						} ],
						"id": "3qDh8XvXrrwo0b5WEo446ZWiP8K6Lota",
						"nodeType": "luaCondition",
						"parameters": [ {
							"name": "expression",
							"value": "#shikas <= 3"
						}, {
							"name": "repeat",
							"value": "true"
						} ]
					}, {
						"children": [],
						"id": "Rbne3MkJ6FiWyjRn4gcpCcedqBqYyFnL",
						"nodeType": "luaCommand",
						"parameters": [ {
							"name": "var",
							"value": "lugersInBase"
						}, {
							"name": "value",
							"value": "nota_sch_exam.DetectUnitsByName(unitsInBase, \"armmart\")"
						}, {
							"name": "scriptName",
							"value": "store"
						} ],
						"scriptName": "store"
					}, {
						"children": [],
						"id": "Jr4C9gjOC9MlexfaH9sL7NrapZjMCfJ3",
						"nodeType": "luaCommand",
						"parameters": [ {
							"name": "var",
							"value": "zeuses"
						}, {
							"name": "value",
							"value": "nota_sch_exam.DetectUnitsByName(myUnits, \"armzeus\")"
						}, {
							"name": "scriptName",
							"value": "store"
						} ],
						"scriptName": "store"
					}, {
						"children": [ {
							"children": [],
							"id": "6keAj7YxfOOZsTi1aTB89VHRMuAtrAr7",
							"nodeType": "luaCommand",
							"parameters": [ {
								"name": "var",
								"value": "middlePoint"
							}, {
								"name": "value",
								"value": "nota_sch_exam.DetectMiddle(farestStrongpointMiddle, nearestEnemyStrongpointMiddle.position)"
							}, {
								"name": "scriptName",
								"value": "store"
							} ],
							"scriptName": "store"
						}, {
							"children": [],
							"id": "jsngiJy0vNORxdcpe35VLkkT7flhsEcH",
							"nodeType": "success",
							"parameters": []
						} ],
						"id": "RfaaxEXI9YUYmqdo7HAPAQYQbFdxm3nZ",
						"nodeType": "luaCondition",
						"parameters": [ {
							"name": "expression",
							"value": " nearestEnemyStrongpointMiddle ~= nil"
						}, {
							"name": "repeat",
							"value": "true"
						} ]
					}, {
						"children": [],
						"id": "k45Ffgl5pOPGVDk6JVNhSkqzVPMx4AEk",
						"nodeType": "luaCommand",
						"parameters": [ {
							"name": "var",
							"value": "seer"
						}, {
							"name": "value",
							"value": "nota_sch_exam.DetectUnitsByName(myUnits, \"armseer\")"
						}, {
							"name": "scriptName",
							"value": "store"
						} ],
						"scriptName": "store"
					}, {
						"children": [],
						"id": "I5nxEP6iOk99DNIhBknRWqE1YxgpuB3r",
						"nodeType": "luaCommand",
						"parameters": [ {
							"name": "var",
							"value": "lugersNotInBase"
						}, {
							"name": "value",
							"value": "nota_sch_exam.DetectUnitsNotInBaseByName(myUnits, lugersInBase, \"armmart\" )"
						}, {
							"name": "scriptName",
							"value": "store"
						} ],
						"scriptName": "store"
					}, {
						"children": [],
						"id": "VNkV2cl19nZr2nrnKTHRjBTJjd5x0C4d",
						"nodeType": "luaCommand",
						"parameters": [ {
							"name": "var",
							"value": "atlasses"
						}, {
							"name": "value",
							"value": "nota_sch_exam.DetectUnitsByName(myUnits, \"armatlas\")"
						}, {
							"name": "scriptName",
							"value": "store"
						} ],
						"scriptName": "store"
					}, {
						"children": [],
						"id": "4tVjr8nJK06wzwIu5ZAmk96piRXwbIax",
						"nodeType": "luaCommand",
						"parameters": [ {
							"name": "var",
							"value": "mavericksInBase"
						}, {
							"name": "value",
							"value": "nota_sch_exam.DetectUnitsByName(unitsInBase, \"armmav\")"
						}, {
							"name": "scriptName",
							"value": "store"
						} ],
						"scriptName": "store"
					}, {
						"children": [],
						"id": "CvKCHrDv3IPyFpKsrwsTUb6HxH1kJJ95",
						"nodeType": "luaCommand",
						"parameters": [ {
							"name": "var",
							"value": "mavericks"
						}, {
							"name": "value",
							"value": "nota_sch_exam.DetectUnitsByName(myUnits, \"armmav\")"
						}, {
							"name": "scriptName",
							"value": "store"
						} ],
						"scriptName": "store"
					}, {
						"children": [],
						"id": "a5NdNlO1rGX8N82jRwWd6HCOJ2phKx9g",
						"nodeType": "luaCommand",
						"parameters": [ {
							"name": "var",
							"value": "seerInBase"
						}, {
							"name": "value",
							"value": "nota_sch_exam.DetectUnitsByName(unitsInBase, \"armseer\")"
						}, {
							"name": "scriptName",
							"value": "store"
						} ],
						"scriptName": "store"
					}, {
						"children": [],
						"id": "WlLslLJpoCUbteuioBGSFFBr9CVGLSyQ",
						"nodeType": "luaCommand",
						"parameters": [ {
							"name": "var",
							"value": "boxesInBase"
						}, {
							"name": "value",
							"value": "nota_sch_exam.DetectUnitsByName(unitsInBase, \"armbox\")"
						}, {
							"name": "scriptName",
							"value": "store"
						} ],
						"scriptName": "store"
					} ],
					"id": "z69o0dOJlkqKm5R51g3KjJBB4HS9H8iG",
					"nodeType": "sequence",
					"parameters": []
				} ],
				"id": "DP7JNzTXdMhXCjA0nW6UkQMQt16enGd2",
				"nodeType": "repeat",
				"parameters": []
			}, {
				"children": [ {
					"children": [ {
						"children": [ {
							"children": [],
							"id": "zAbuAZR1VfQ5TxJZCubPcjunWH71FDri",
							"nodeType": "luaCommand",
							"parameters": [ {
								"name": "var",
								"value": "nearestShika"
							}, {
								"name": "value",
								"value": "nota_sch_exam.DetectClosestShika(shikas)"
							}, {
								"name": "scriptName",
								"value": "store"
							} ],
							"scriptName": "store"
						} ],
						"id": "5dPJ7mOo64KVxzxERtVgW5BZmiYa4Lo2",
						"nodeType": "repeat",
						"parameters": []
					}, {
						"children": [],
						"id": "wNlsKByz8LSWFSgRWtOubWptmBi8UiNn",
						"nodeType": "success",
						"parameters": []
					} ],
					"id": "bM3CwmVhkHfJXnNbuIHRYu2FTtxHuQsm",
					"nodeType": "luaCondition",
					"parameters": [ {
						"name": "expression",
						"value": "shikas ~= nil and #shikas > 0"
					}, {
						"name": "repeat",
						"value": "true"
					} ]
				} ],
				"id": "MiaqdrnWdJMog4bunxd9QxFzSHi0EUrY",
				"nodeType": "repeat",
				"parameters": []
			}, {
				"children": [ {
					"children": [ {
						"children": [ {
							"children": [ {
								"children": [],
								"id": "SeQTR4dilm6chCzc60Ul0qBjwh5fZzyp",
								"nodeType": "luaCommand",
								"parameters": [ {
									"name": "var",
									"value": "enemyBasePos"
								}, {
									"name": "value",
									"value": "nota_sch_exam.DetectEnemyBasePos(enemyBuildings)"
								}, {
									"name": "scriptName",
									"value": "store"
								} ],
								"scriptName": "store"
							}, {
								"children": [],
								"id": "vdIWzOj1Wh3Q1vnkGIQARvOMSgAVkuhm",
								"nodeType": "luaCommand",
								"parameters": [ {
									"name": "var",
									"value": "checkVariable"
								}, {
									"name": "value",
									"value": "true"
								}, {
									"name": "scriptName",
									"value": "store"
								} ],
								"scriptName": "store"
							} ],
							"id": "3U1ij8rfYTTYOBiFTCrHgINOwZRVE5tt",
							"nodeType": "sequence",
							"parameters": []
						} ],
						"id": "mxBXIZ1hnbN4GSQQ2AMnvuHk8VutegBy",
						"nodeType": "repeat",
						"parameters": []
					}, {
						"children": [],
						"id": "HRU7JXoncREXwmL1ra2GcbDuqgatXrkL",
						"nodeType": "success",
						"parameters": []
					} ],
					"id": "M6BdBD8Xy1MBGVTPykXdtuSpewyFuNAH",
					"nodeType": "luaCondition",
					"parameters": [ {
						"name": "expression",
						"value": "enemyBuildings ~= nil and #enemyBuildings == 3 and checkVariable == false"
					}, {
						"name": "repeat",
						"value": "true"
					} ]
				} ],
				"id": "X0FgnUrRANy1hkvfjCBasnCiDnAQezyE",
				"nodeType": "repeat",
				"parameters": []
			}, {
				"children": [ {
					"children": [ {
						"children": [],
						"id": "1TrNFcM9rxjgGN5zR1fhWKj2MytQuH4Z",
						"nodeType": "luaCommand",
						"parameters": [ {
							"name": "var",
							"value": "myUnits"
						}, {
							"name": "value",
							"value": "Spring.GetTeamUnits(Spring.GetMyTeamID())"
						}, {
							"name": "scriptName",
							"value": "store"
						} ],
						"scriptName": "store"
					}, {
						"children": [],
						"id": "mGYk6kqNn8X2hiYhfermaW4SGDdY4Joz",
						"nodeType": "luaCommand",
						"parameters": [ {
							"name": "var",
							"value": "peeper"
						}, {
							"name": "value",
							"value": "nota_sch_exam.DetectUnitsByName(myUnits, \"armpeep\")"
						}, {
							"name": "scriptName",
							"value": "store"
						} ],
						"scriptName": "store"
					}, {
						"children": [],
						"id": "1ze62xP7UDuky8qtjdsCJgBIKKa9uQq9",
						"nodeType": "luaCommand",
						"parameters": [ {
							"name": "var",
							"value": "targetLocation"
						}, {
							"name": "value",
							"value": "Vec3(Game.mapSizeX, Spring.GetGroundHeight(Game.mapSizeX,0), 0)"
						}, {
							"name": "scriptName",
							"value": "store"
						} ],
						"scriptName": "store"
					}, {
						"children": [ {
							"children": [],
							"id": "rXBuBqChck5pWqGr2XtfPwnC6FqJTbaI",
							"nodeType": "luaCommand",
							"parameters": [ {
								"name": "thisUnit",
								"value": "peeper[1]"
							}, {
								"name": "pos",
								"value": "targetLocation"
							}, {
								"name": "scriptName",
								"value": "nota_sch_exam.move"
							} ],
							"scriptName": "nota_sch_exam.move"
						}, {
							"children": [],
							"id": "LlqSM8Sx96Ll8O8bbUBq08uBdIMtColM",
							"nodeType": "luaCommand",
							"parameters": [ {
								"name": "condition",
								"value": "true"
							}, {
								"name": "scriptName",
								"value": "waitUntil"
							} ],
							"scriptName": "waitUntil"
						} ],
						"id": "fTOxw2Aw3E7Y8iQFGZ3qIOtrRz61WfuJ",
						"nodeType": "luaCondition",
						"parameters": [ {
							"name": "expression",
							"value": "Spring.ValidUnitID(peeper[1] ) == true"
						}, {
							"name": "repeat",
							"value": "true"
						} ]
					} ],
					"id": "rdUZZluoibI44yQKeaRButbzK5sRFJJM",
					"nodeType": "sequence",
					"parameters": []
				} ],
				"id": "bp9nGobmJts6k7Yd2uSMIJmIBtQpcuEC",
				"nodeType": "repeat",
				"parameters": []
			}, {
				"children": [ {
					"children": [],
					"id": "lU5Jcfug3Ulm44TGIylhuuT1IuwYIJTj",
					"nodeType": "reference",
					"parameters": [ {
						"name": "behaviourName",
						"value": "nota_sch_exam.manageBuying"
					} ],
					"referenceInputs": [ {
						"name": "missionInfo",
						"value": "missionInfo"
					} ],
					"referenceOutputs": []
				} ],
				"id": "Nm8zgHMdKpPj1PUMyxUiz7BD7piPFuGL",
				"nodeType": "repeat",
				"parameters": []
			}, {
				"children": [ {
					"children": [],
					"id": "1DD47b14RkN33Gym6xqfNb5q4b4YcvJV",
					"nodeType": "reference",
					"parameters": [ {
						"name": "behaviourName",
						"value": "nota_sch_exam.manageFarcks"
					} ],
					"referenceInputs": [ {
						"name": "enemyBase",
						"value": "enemyBasePos"
					}, {
						"name": "missionInfo",
						"value": "missionInfo"
					}, {
						"name": "basePosition",
						"value": "basePosition"
					}, {
						"name": "myAllyID",
						"value": "myAllyID"
					} ],
					"referenceOutputs": []
				} ],
				"id": "EbLy1nRObui4txGo1WMNSnDqB1rLKoTZ",
				"nodeType": "repeat",
				"parameters": []
			}, {
				"children": [ {
					"children": [ {
						"children": [ {
							"children": [ {
								"children": [ {
									"children": [ {
										"children": [],
										"id": "V051OGMAuuW0zgyqJ9iEseA9QyTaxf5U",
										"nodeType": "luaCommand",
										"parameters": [ {
											"name": "thisUnit",
											"value": "seer[1]"
										}, {
											"name": "pos",
											"value": "farestStrongpointMiddle"
										}, {
											"name": "scriptName",
											"value": "nota_schimper_homeworkassignments.ttdr_move"
										} ],
										"scriptName": "nota_schimper_homeworkassignments.ttdr_move"
									} ],
									"id": "1nu9Xa4Sfav6em9rKHpkCw2CHQ0QsuLL",
									"nodeType": "sequence",
									"parameters": []
								}, {
									"children": [],
									"id": "gnZ3j0r91OfccfEQf9Gio1vh5cJoDRa2",
									"nodeType": "success",
									"parameters": []
								} ],
								"id": "BofbCOBQAzFORGu0yhIXHdrV9zfeioBZ",
								"nodeType": "luaCondition",
								"parameters": [ {
									"name": "expression",
									"value": "nota_sch_exam.DetectDistanceToStrongpoint(seer[1], farestStrongpointMiddle ) > 500"
								}, {
									"name": "repeat",
									"value": "true"
								} ]
							}, {
								"children": [],
								"id": "Vu3uivNkzQTRXcQmVOhvyNzp1vol3pHT",
								"nodeType": "success",
								"parameters": []
							} ],
							"id": "krYHgZ0fQbJXD2l2m14ssZo4bmKYoGU4",
							"nodeType": "luaCondition",
							"parameters": [ {
								"name": "expression",
								"value": "seer ~= nil and #seer == 1 and  farestStrongpointMiddle ~= nil"
							}, {
								"name": "repeat",
								"value": "true"
							} ]
						} ],
						"id": "Qd3odEDm8rIunuqpAJLkT1Q16al8N9uM",
						"nodeType": "repeat",
						"parameters": []
					}, {
						"children": [ {
							"children": [ {
								"children": [],
								"id": "iVtGAxofnvgLF1uRLo56FO9DZ3k4IV7C",
								"nodeType": "reference",
								"parameters": [ {
									"name": "behaviourName",
									"value": "nota_sch_exam.build_lugar_defense"
								} ],
								"referenceInputs": [ {
									"name": "lugers",
									"value": "lugersInBase"
								}, {
									"name": "missionInfo",
									"value": "missionInfo"
								}, {
									"name": "ourStrongpoint",
									"value": "farestStrongpointMiddle"
								}, {
									"name": "atlasses",
									"value": "atlasses"
								}, {
									"name": "basePos",
									"value": "basePosition"
								}, {
									"name": "mavericks",
									"value": "mavericksInBase"
								}, {
									"name": "seer",
									"value": "seerInBase"
								} ],
								"referenceOutputs": []
							}, {
								"children": [],
								"id": "dYVdXbETvsfbeIq2Jk1DIdFk3d2dqNwW",
								"nodeType": "success",
								"parameters": []
							} ],
							"id": "NAccQLyV0j5roEm1JMNB2jIgzKHIk9tl",
							"nodeType": "luaCondition",
							"parameters": [ {
								"name": "expression",
								"value": "lugersInBase ~= nil and #lugersInBase >= 5 and atlasses ~= nil and  #atlasses >= 5  or mavericksInBase ~= nil and #mavericksInBase >= 3 and atlasses ~= nil and  #atlasses >= 5 "
							}, {
								"name": "repeat",
								"value": "false"
							} ]
						} ],
						"id": "FS4JdnsBeXfKqIHTXdr6SrWRf7sOwb4u",
						"nodeType": "repeat",
						"parameters": []
					}, {
						"children": [ {
							"children": [ {
								"children": [ {
									"children": [],
									"id": "hxFS3WNMuXCALxTthl5AMX1PCHrFVRzi",
									"nodeType": "reference",
									"parameters": [ {
										"name": "behaviourName",
										"value": "nota_sch_exam.moveToFront"
									} ],
									"referenceInputs": [ {
										"name": "currentSP",
										"value": "farestStrongpointMiddle"
									}, {
										"name": "middlePoint",
										"value": "middlePoint"
									}, {
										"name": "nearestShika",
										"value": "nearestShika"
									}, {
										"name": "secondSP",
										"value": "secondFarestStrongpointMiddle"
									}, {
										"name": "lugersNotInBase",
										"value": "lugersNotInBase"
									} ],
									"referenceOutputs": []
								} ],
								"id": "hG6DSz8tQkhjMf6P9X27RoP4xFKdHYjt",
								"nodeType": "repeat",
								"parameters": []
							}, {
								"children": [],
								"id": "f4QCXCbqxm8iYTy2ljRZcyRh9leQPYcc",
								"nodeType": "success",
								"parameters": []
							} ],
							"id": "5F5XteqNdL6EkHz3PHngNnDTa6WdnmhD",
							"nodeType": "luaCondition",
							"parameters": [ {
								"name": "expression",
								"value": "lugersNotInBase ~= nil and #lugersNotInBase > 0"
							}, {
								"name": "repeat",
								"value": "true"
							} ]
						} ],
						"id": "AId5yTeNOE5s6iSw9GbVN2H8ffJXuRJ2",
						"nodeType": "repeat",
						"parameters": []
					}, {
						"children": [ {
							"children": [ {
								"children": [],
								"id": "dajGhEDid5UBhKWS8N9BAm29p8WG5i1m",
								"nodeType": "reference",
								"parameters": [ {
									"name": "behaviourName",
									"value": "nota_sch_exam.manageMavZeusGroup"
								} ],
								"referenceInputs": [ {
									"name": "mavericks",
									"value": "mavericks"
								}, {
									"name": "zeuses",
									"value": "zeuses"
								}, {
									"name": "middleStrongpoint",
									"value": "farestStrongpointMiddle"
								}, {
									"name": "nearestEnemyStrongPoint",
									"value": "nearestEnemyStrongpointMiddle"
								}, {
									"name": "badGuys",
									"value": "nearestShika"
								}, {
									"name": "missionInfo",
									"value": "missionInfo"
								}, {
									"name": "middlePoint",
									"value": "middlePoint"
								} ],
								"referenceOutputs": []
							}, {
								"children": [],
								"id": "njwkslxSWKglk0RP51SiXbh2TFxfkMLO",
								"nodeType": "success",
								"parameters": []
							} ],
							"id": "CMZVYbgcyuK4y4PjhOeiAFSqdWC6B2Q3",
							"nodeType": "luaCondition",
							"parameters": [ {
								"name": "expression",
								"value": "zeuses ~= nil and #zeuses >=  5 or mavericks ~= nil and  #mavericks >= 3  and nearestEnemyStrongpointMiddle ~= nil"
							}, {
								"name": "repeat",
								"value": "true"
							} ]
						} ],
						"id": "U2HO7dkFFa0el8vpypaOJOf3AAO4jqgJ",
						"nodeType": "repeat",
						"parameters": []
					} ],
					"id": "eQ5wW8HDoD8VaNOp3fsFC8AxviNrlIWX",
					"nodeType": "parallel",
					"parameters": [ {
						"name": "mode",
						"value": "all-success"
					} ]
				}, {
					"children": [],
					"id": "aCn9PNmiYLDQFgyk9DnDTmELH93G5N2a",
					"nodeType": "repeat",
					"parameters": []
				} ],
				"id": "aOqSyqoeOxaBnezZA1crczCgENWUO7oT",
				"nodeType": "luaCondition",
				"parameters": [ {
					"name": "expression",
					"value": "remainingEnemyStrongpointsMiddle ~= nil and  #remainingEnemyStrongpointsMiddle > 0"
				}, {
					"name": "repeat",
					"value": "true"
				} ]
			}, {
				"children": [ {
					"children": [ {
						"children": [],
						"id": "snF4uPlE7V294jsf7uV0SOd7tFvrLMeo",
						"nodeType": "luaCommand",
						"parameters": [ {
							"name": "scriptName",
							"value": "nota_sch_exam.manualMissionEnd"
						} ],
						"scriptName": "nota_sch_exam.manualMissionEnd"
					}, {
						"children": [],
						"id": "JbkYpB8K3YpW1zHfQqsNMivN5oB3pWbB",
						"nodeType": "success",
						"parameters": []
					} ],
					"id": "4wv5IpeRrjudXw2FrN6oMUKGFmYjgEXz",
					"nodeType": "luaCondition",
					"parameters": [ {
						"name": "expression",
						"value": "missionInfo.failedBuyAttempts == 0 and missionInfo.goodStrongpoints >= 13 and missionInfo.wantedProduction >= 10"
					}, {
						"name": "repeat",
						"value": "true"
					} ]
				} ],
				"id": "LOzt3qrhLFoR8dFsNHslT9IuOaNvQYfP",
				"nodeType": "repeat",
				"parameters": []
			} ],
			"id": "CW36d6gjXlTqK5vlycPLuhGCA34SMPXB",
			"nodeType": "parallel",
			"parameters": [ {
				"name": "mode",
				"value": "all-success"
			} ]
		} ],
		"id": "NIzTsZLFIp4G7cBzhwoqNoqiY43FtILx",
		"nodeType": "sequence",
		"parameters": []
	}
}