{
	"additionalNodes": [ {
		"children": [ {
			"children": [],
			"id": "cQwhtAd0FMRFSzp2rmFVN15wlRJXZEzh",
			"nodeType": "luaCommand",
			"parameters": [ {
				"name": "thisUnit",
				"value": "thisMavericks[1]"
			}, {
				"name": "pos",
				"value": "remainingShikasPos[#remainingShikaPos]"
			}, {
				"name": "scriptName",
				"value": "nota_sch_exam.move"
			} ],
			"scriptName": "nota_sch_exam.move"
		}, {
			"children": [],
			"id": "QETrFZQLhYmKIrTTsrW801AcxZwRLPl5",
			"nodeType": "luaCommand",
			"parameters": [ {
				"name": "thisUnit",
				"value": "thisMavericks[1]"
			}, {
				"name": "pos",
				"value": "remainingShikasPos[#remainingShikaPos -1]"
			}, {
				"name": "scriptName",
				"value": "nota_sch_exam.move"
			} ],
			"scriptName": "nota_sch_exam.move"
		} ],
		"id": "lYcaI2TicvLkFYjxwWXewsqkqpOwlpbv",
		"nodeType": "sequence",
		"parameters": []
	} ],
	"additionalParameters": {
		"root": {
			"height": 208,
			"width": 253
		}
	},
	"inputs": [ {
		"command": "Variable",
		"name": "enemyBasePos"
	}, {
		"command": "Variable",
		"name": "enemyBuildings"
	}, {
		"command": "Variable",
		"name": "allShikas"
	}, {
		"command": "Variable",
		"name": "seer"
	}, {
		"command": "Variable",
		"name": "topSPs"
	}, {
		"command": "Variable",
		"name": "bottomSPs"
	} ],
	"outputs": [],
	"properties": {
		"068WDgjAtBHKrTq8MX8Sb4nNsgj3xeDR": {
			"height": 90,
			"title": "luaCondition",
			"width": 399,
			"x": 1568,
			"y": 291
		},
		"0M831310YfnaS9EWQSDkebdtQcFcCjT3": {
			"height": 94,
			"title": "store",
			"width": 630,
			"x": 1275,
			"y": -561
		},
		"0oPbcn5IL2Xc9RvjcKN7ockiI1pHQWYt": {
			"height": 70,
			"title": "parallel",
			"width": 202,
			"x": 1169,
			"y": 110
		},
		"4fljTdWz7VkCDmcdnEQKtJSybKL9CTJL": {
			"height": 60,
			"title": "sequence",
			"width": 143,
			"x": 1662,
			"y": 43
		},
		"4ihLnzxwTEvFiX4pPz06aUnUW0nGOS4N": {
			"height": 60,
			"title": "sequence",
			"width": 143,
			"x": 2089,
			"y": -904
		},
		"88EwiozPIyCRtTDCXWL2oe9VmyrIyade": {
			"height": 60,
			"title": "sequence",
			"width": 143,
			"x": 2226,
			"y": 452
		},
		"AzDoy8rkTN5lf1vm0tpiMSJRwyhydFQK": {
			"height": 54,
			"title": "success",
			"width": 132,
			"x": 2030,
			"y": 534
		},
		"CMwbuvIqnGF9ukWc6XuUgFRqEvRRDHAs": {
			"height": 94,
			"title": "store",
			"width": 469,
			"x": 2306,
			"y": -819
		},
		"DrO942KBcbvuUvLpQ0fDFPqisTSmTE0P": {
			"height": 94,
			"title": "store",
			"width": 616,
			"x": 1274,
			"y": -641
		},
		"Gg3PqaUzdfjMnhXFRhN7wIOe7EpD0EhF": {
			"height": 94,
			"title": "store",
			"width": 537,
			"x": 2305,
			"y": -905
		},
		"IbMuVwOygOmVSLoyB3BLTX1wiPeLiEaf": {
			"height": 94,
			"title": "store",
			"width": 469,
			"x": 2306,
			"y": -1086
		},
		"Iv130g7fyJLISwsTHSqj3bCuRRYFP4gQ": {
			"height": 90,
			"title": "luaCondition",
			"width": 230,
			"x": 1181,
			"y": -171
		},
		"MNrbdc4cyQsbKKuhQM1WwdNLjaQ697rr": {
			"height": 92,
			"title": "store",
			"width": 310,
			"x": 1879,
			"y": 32
		},
		"QETrFZQLhYmKIrTTsrW801AcxZwRLPl5": {
			"height": 92,
			"title": "nota_sch_exam.move",
			"width": 358,
			"x": 3125,
			"y": 604
		},
		"ZYn909I48kHBDDVQnAUh1c8AVShga4Do": {
			"height": 60,
			"title": "sequence",
			"width": 143,
			"x": 958,
			"y": -353
		},
		"biimhzYgrhAcwaAcyYCaMzQ5D5YN0kNK": {
			"height": 60,
			"title": "repeat",
			"width": 131,
			"x": 997,
			"y": -157
		},
		"cQwhtAd0FMRFSzp2rmFVN15wlRJXZEzh": {
			"height": 92,
			"title": "nota_sch_exam.move",
			"width": 341,
			"x": 3115,
			"y": 490
		},
		"eL0xtD7Ol8DSftmzaGSGTu3JIWqKcNZo": {
			"height": 97,
			"title": "nota_sch_exam.move",
			"width": 369,
			"x": 2488,
			"y": 292
		},
		"kMhJfjlPh2sxpmH0WOGs3B761WQKIDgU": {
			"height": 97,
			"title": "nota_sch_exam.move",
			"width": 369,
			"x": 2480,
			"y": 393
		},
		"lYcaI2TicvLkFYjxwWXewsqkqpOwlpbv": {
			"height": 60,
			"title": "sequence",
			"width": 143,
			"x": 2905,
			"y": 542
		},
		"lkmKhthYl1G0md0u5OmvsxAOWXxSpbiz": {
			"height": 60,
			"title": "repeat",
			"width": 131,
			"x": 995,
			"y": 48
		},
		"nB0Rq3LKlJ4Mp2GyICc0TVKXoWMcOYXG": {
			"height": 60,
			"title": "repeat",
			"width": 131,
			"x": 1785,
			"y": -381
		},
		"nh7LqHr6j9H11Z2Mend2Ip9Rg2mYeaRS": {
			"height": 92,
			"title": "nota_sch_exam.move",
			"width": 201,
			"x": 1575,
			"y": -204
		},
		"oHAO66QPjSEZq7s5T56AbBW6FrEs8O4Q": {
			"height": 94,
			"title": "store",
			"width": 469,
			"x": 2321,
			"y": -607
		},
		"oU82dyX1XAx7Auxs5YDfw7Z4pagu3Umn": {
			"height": 72,
			"title": "waitUntil",
			"width": 150,
			"x": 1555,
			"y": -77
		},
		"puaIz8TuOFSTALoAIUGlUuJk3kOZsVTr": {
			"height": 92,
			"title": "nota_sch_exam.attack",
			"width": 228,
			"x": 1888,
			"y": 120
		},
		"q4urOMwXvsT0ZXhZ1nQLLHI30ggXdJZu": {
			"height": 60,
			"title": "repeat",
			"width": 131,
			"x": 1447,
			"y": 88
		},
		"q9j5CMK2xA3snkAdvo4Hur0lDibQkDv4": {
			"height": 70,
			"title": "parallel",
			"width": 202,
			"x": 670,
			"y": 37
		},
		"rZ9qk5UXl3muliM5aBrv3wtD4BhCpkTo": {
			"height": 94,
			"title": "store",
			"width": 493,
			"x": 2297,
			"y": -703
		},
		"xBF03h7TCYNwZCadft2lAiIFgsnlXPP3": {
			"height": 94,
			"title": "store",
			"width": 505,
			"x": 2304,
			"y": -990
		}
	},
	"roles": [ {
		"categories": [],
		"name": "Role 0"
	} ],
	"root": {
		"children": [ {
			"children": [ {
				"children": [],
				"id": "DrO942KBcbvuUvLpQ0fDFPqisTSmTE0P",
				"nodeType": "luaCommand",
				"parameters": [ {
					"name": "var",
					"value": "topSP"
				}, {
					"name": "value",
					"value": "DetectNearestEnemyStrongpoint(enemyBasePos, topSPs)"
				}, {
					"name": "scriptName",
					"value": "store"
				} ],
				"scriptName": "store"
			}, {
				"children": [],
				"id": "0M831310YfnaS9EWQSDkebdtQcFcCjT3",
				"nodeType": "luaCommand",
				"parameters": [ {
					"name": "var",
					"value": "bottomSP"
				}, {
					"name": "value",
					"value": "DetectNearestEnemyStrongpoint(enemyBasePos, bottomSPs)"
				}, {
					"name": "scriptName",
					"value": "store"
				} ],
				"scriptName": "store"
			}, {
				"children": [ {
					"children": [ {
						"children": [],
						"id": "IbMuVwOygOmVSLoyB3BLTX1wiPeLiEaf",
						"nodeType": "luaCommand",
						"parameters": [ {
							"name": "var",
							"value": "allMyUnits"
						}, {
							"name": "value",
							"value": "Spring.GetTeamUnits(Spring.GetMyTeamID())"
						}, {
							"name": "scriptName",
							"value": "store"
						} ],
						"scriptName": "store"
					}, {
						"children": [],
						"id": "xBF03h7TCYNwZCadft2lAiIFgsnlXPP3",
						"nodeType": "luaCommand",
						"parameters": [ {
							"name": "var",
							"value": "allFightingUnits"
						}, {
							"name": "value",
							"value": "nota_sch_exam.DetectUnitsExceptByName(allMyUnits, \"armseer\")"
						}, {
							"name": "scriptName",
							"value": "store"
						} ],
						"scriptName": "store"
					}, {
						"children": [],
						"id": "Gg3PqaUzdfjMnhXFRhN7wIOe7EpD0EhF",
						"nodeType": "luaCommand",
						"parameters": [ {
							"name": "var",
							"value": "thisLugers"
						}, {
							"name": "value",
							"value": "nota_sch_exam.DetectUnitsExceptByName(allFightingUnits, \"armmav\")"
						}, {
							"name": "scriptName",
							"value": "store"
						} ],
						"scriptName": "store"
					}, {
						"children": [],
						"id": "CMwbuvIqnGF9ukWc6XuUgFRqEvRRDHAs",
						"nodeType": "luaCommand",
						"parameters": [ {
							"name": "var",
							"value": "enemyBuildings"
						}, {
							"name": "value",
							"value": "nota_sch_exam.UpdateValid(enemyBuildings)"
						}, {
							"name": "scriptName",
							"value": "store"
						} ],
						"scriptName": "store"
					}, {
						"children": [],
						"id": "rZ9qk5UXl3muliM5aBrv3wtD4BhCpkTo",
						"nodeType": "luaCommand",
						"parameters": [ {
							"name": "var",
							"value": "thisMavericks"
						}, {
							"name": "value",
							"value": "nota_sch_exam.DetectUnitsByName(allFightingUnits, \"armmav\")"
						}, {
							"name": "scriptName",
							"value": "store"
						} ],
						"scriptName": "store"
					}, {
						"children": [],
						"id": "oHAO66QPjSEZq7s5T56AbBW6FrEs8O4Q",
						"nodeType": "luaCommand",
						"parameters": [ {
							"name": "var",
							"value": "remainingShikas"
						}, {
							"name": "value",
							"value": "nota_sch_exam.UpdateValid(allShikas)"
						}, {
							"name": "scriptName",
							"value": "store"
						} ],
						"scriptName": "store"
					} ],
					"id": "4ihLnzxwTEvFiX4pPz06aUnUW0nGOS4N",
					"nodeType": "sequence",
					"parameters": []
				} ],
				"id": "nB0Rq3LKlJ4Mp2GyICc0TVKXoWMcOYXG",
				"nodeType": "repeat",
				"parameters": []
			} ],
			"id": "ZYn909I48kHBDDVQnAUh1c8AVShga4Do",
			"nodeType": "sequence",
			"parameters": []
		}, {
			"children": [ {
				"children": [ {
					"children": [],
					"id": "nh7LqHr6j9H11Z2Mend2Ip9Rg2mYeaRS",
					"nodeType": "luaCommand",
					"parameters": [ {
						"name": "thisUnit",
						"value": "seer"
					}, {
						"name": "pos",
						"value": "enemyBasePos"
					}, {
						"name": "scriptName",
						"value": "nota_sch_exam.move"
					} ],
					"scriptName": "nota_sch_exam.move"
				}, {
					"children": [],
					"id": "oU82dyX1XAx7Auxs5YDfw7Z4pagu3Umn",
					"nodeType": "luaCommand",
					"parameters": [ {
						"name": "condition",
						"value": "true"
					}, {
						"name": "scriptName",
						"value": "waitUntil"
					} ],
					"scriptName": "waitUntil"
				} ],
				"id": "Iv130g7fyJLISwsTHSqj3bCuRRYFP4gQ",
				"nodeType": "luaCondition",
				"parameters": [ {
					"name": "expression",
					"value": "Spring.ValidUnitID(seer)"
				}, {
					"name": "repeat",
					"value": "true"
				} ]
			} ],
			"id": "biimhzYgrhAcwaAcyYCaMzQ5D5YN0kNK",
			"nodeType": "repeat",
			"parameters": []
		}, {
			"children": [ {
				"children": [ {
					"children": [ {
						"children": [ {
							"children": [],
							"id": "MNrbdc4cyQsbKKuhQM1WwdNLjaQ697rr",
							"nodeType": "luaCommand",
							"parameters": [ {
								"name": "var",
								"value": "currentShika"
							}, {
								"name": "value",
								"value": "remainingShikas[#remainingShikas]"
							}, {
								"name": "scriptName",
								"value": "store"
							} ],
							"scriptName": "store"
						}, {
							"children": [],
							"id": "puaIz8TuOFSTALoAIUGlUuJk3kOZsVTr",
							"nodeType": "luaCommand",
							"parameters": [ {
								"name": "thisUnits",
								"value": "thisLugers"
							}, {
								"name": "targetUnit",
								"value": "currentShika"
							}, {
								"name": "scriptName",
								"value": "nota_sch_exam.attack"
							} ],
							"scriptName": "nota_sch_exam.attack"
						} ],
						"id": "4fljTdWz7VkCDmcdnEQKtJSybKL9CTJL",
						"nodeType": "sequence",
						"parameters": []
					} ],
					"id": "q4urOMwXvsT0ZXhZ1nQLLHI30ggXdJZu",
					"nodeType": "repeat",
					"parameters": []
				}, {
					"children": [ {
						"children": [ {
							"children": [],
							"id": "eL0xtD7Ol8DSftmzaGSGTu3JIWqKcNZo",
							"nodeType": "luaCommand",
							"parameters": [ {
								"name": "thisUnit",
								"value": "thisMavericks[1]"
							}, {
								"name": "pos",
								"value": "topSP"
							}, {
								"name": "scriptName",
								"value": "nota_sch_exam.move"
							} ],
							"scriptName": "nota_sch_exam.move"
						}, {
							"children": [],
							"id": "kMhJfjlPh2sxpmH0WOGs3B761WQKIDgU",
							"nodeType": "luaCommand",
							"parameters": [ {
								"name": "thisUnit",
								"value": "thisMavericks[1]"
							}, {
								"name": "pos",
								"value": "bottomSP"
							}, {
								"name": "scriptName",
								"value": "nota_sch_exam.move"
							} ],
							"scriptName": "nota_sch_exam.move"
						} ],
						"id": "88EwiozPIyCRtTDCXWL2oe9VmyrIyade",
						"nodeType": "sequence",
						"parameters": []
					}, {
						"children": [],
						"id": "AzDoy8rkTN5lf1vm0tpiMSJRwyhydFQK",
						"nodeType": "success",
						"parameters": []
					} ],
					"id": "068WDgjAtBHKrTq8MX8Sb4nNsgj3xeDR",
					"nodeType": "luaCondition",
					"parameters": [ {
						"name": "expression",
						"value": "reaminingShikas == nil or #remainingShikas == 0"
					}, {
						"name": "repeat",
						"value": "true"
					} ]
				} ],
				"id": "0oPbcn5IL2Xc9RvjcKN7ockiI1pHQWYt",
				"nodeType": "parallel",
				"parameters": [ {
					"name": "mode",
					"value": "all-success"
				} ]
			} ],
			"id": "lkmKhthYl1G0md0u5OmvsxAOWXxSpbiz",
			"nodeType": "repeat",
			"parameters": []
		} ],
		"id": "q9j5CMK2xA3snkAdvo4Hur0lDibQkDv4",
		"nodeType": "parallel",
		"parameters": [ {
			"name": "mode",
			"value": "all-success"
		} ]
	}
}