{
	"additionalNodes": [],
	"additionalParameters": {
		"root": {
			"height": 168,
			"width": 235
		}
	},
	"inputs": [ {
		"command": "Variable",
		"name": "ownSP"
	}, {
		"command": "Variable",
		"name": "lugersInBase"
	}, {
		"command": "Variable",
		"name": "myUnits"
	} ],
	"outputs": [],
	"properties": {
		"4KLY4wzBoQeImoZHKB0H3RRVWj4r1OQ3": {
			"height": 90,
			"title": "luaCondition",
			"width": 194,
			"x": 736,
			"y": 76
		},
		"AgSBHxjj7EL48za22S6RNbF3i4Ohyb8F": {
			"height": 54,
			"title": "failure",
			"width": 131,
			"x": 1005,
			"y": 230
		},
		"KDX7fBbvJLZBxU9i61oM0eeodau1omFe": {
			"height": 94,
			"title": "store",
			"width": 610,
			"x": 1123,
			"y": -123
		},
		"w5j3vQUkSi2UgR9xsneivosLRp2znfOM": {
			"height": 70,
			"title": "parallel",
			"width": 202,
			"x": 454,
			"y": 20
		},
		"wM58Ql3od9RvE6i1ysLNsG9IHAaFMei3": {
			"height": 60,
			"title": "repeat",
			"width": 131,
			"x": 836,
			"y": -112
		}
	},
	"roles": [ {
		"categories": [],
		"name": "Role 0"
	} ],
	"root": {
		"children": [ {
			"children": [ {
				"children": [],
				"id": "KDX7fBbvJLZBxU9i61oM0eeodau1omFe",
				"nodeType": "luaCommand",
				"parameters": [ {
					"name": "var",
					"value": "lugersNotInBase"
				}, {
					"name": "value",
					"value": "nota_sch_exam.DetectUnitsNotInBaseByName(myUnits, lugersInBase, \"armmart\" )"
				}, {
					"name": "scriptName",
					"value": "store"
				} ],
				"scriptName": "store"
			} ],
			"id": "wM58Ql3od9RvE6i1ysLNsG9IHAaFMei3",
			"nodeType": "repeat",
			"parameters": []
		}, {
			"children": [ {
				"children": [],
				"id": "AgSBHxjj7EL48za22S6RNbF3i4Ohyb8F",
				"nodeType": "failure",
				"parameters": []
			} ],
			"id": "4KLY4wzBoQeImoZHKB0H3RRVWj4r1OQ3",
			"nodeType": "luaCondition",
			"parameters": [ {
				"name": "expression",
				"value": "lugersNotInBase ~= nil"
			}, {
				"name": "repeat",
				"value": "false"
			} ]
		} ],
		"id": "w5j3vQUkSi2UgR9xsneivosLRp2znfOM",
		"nodeType": "parallel",
		"parameters": [ {
			"name": "mode",
			"value": "all-success"
		} ]
	}
}