{
	"additionalNodes": [ {
		"children": [ {
			"children": [ {
				"children": [],
				"id": "dW3zJXfr6G2SGT8ZwoxUyh1PeqFW0NYT",
				"nodeType": "luaCommand",
				"parameters": [ {
					"name": "unitName",
					"value": "'armzeus'"
				}, {
					"name": "scriptName",
					"value": "nota_sch_exam.buyUnits"
				} ],
				"scriptName": "nota_sch_exam.buyUnits"
			}, {
				"children": [],
				"id": "yvj4iElPDlwtfjRQH4vPIXN0h6nQm9an",
				"nodeType": "failure",
				"parameters": []
			} ],
			"id": "MpRwMTBDxT0HvQVUgSESREqQkiGoHYFo",
			"nodeType": "luaCondition",
			"parameters": [ {
				"name": "expression",
				"value": "missionInfo.buy.armzeus < availableMetal"
			}, {
				"name": "repeat",
				"value": "true"
			} ]
		}, {
			"children": [],
			"id": "yrBnDjLWl0Yq9J6IPYRds7BCdMGB3btw",
			"nodeType": "failure",
			"parameters": []
		} ],
		"id": "p98E2CmS326u2mRslrLL1tQ3M5lqVHtH",
		"nodeType": "luaCondition",
		"parameters": [ {
			"name": "expression",
			"value": "armzeusNumber < 5"
		}, {
			"name": "repeat",
			"value": "true"
		} ]
	} ],
	"additionalParameters": {
		"root": {
			"height": 148,
			"width": 266
		}
	},
	"inputs": [ {
		"command": "Variable",
		"name": "missionInfo"
	} ],
	"outputs": [],
	"properties": {
		"3HDgEm053rgClGYcPMxtlfNiQizDIoRB": {
			"height": 90,
			"title": "luaCondition",
			"width": 350,
			"x": 1719,
			"y": 738
		},
		"3Tf7uGJHejoLzB6mXGtmbH9J2JZfNygN": {
			"height": 94,
			"title": "store",
			"width": 434,
			"x": 1183,
			"y": -447
		},
		"4dBcLvSDvFAVhtt6YSvrnZgL5AhiiJRu": {
			"height": 70,
			"title": "parallel",
			"width": 202,
			"x": 439,
			"y": -57
		},
		"6QTkIJNO0B9wtjzyMP8bHabS3UilSMhE": {
			"height": 72,
			"title": "nota_sch_exam.buyUnits",
			"width": 221,
			"x": 2426,
			"y": 1567
		},
		"75FYNYwYPu3ECZJrACyATDhQDfO8JWKl": {
			"height": 90,
			"title": "luaCondition",
			"width": 307,
			"x": 2035,
			"y": 126
		},
		"9j9buvGTbDwZd63T4wy1najta9Tyii06": {
			"height": 94,
			"title": "store",
			"width": 469,
			"x": 1188,
			"y": -1047
		},
		"A6TRqDRi6CIsSPehVyxY49pXqNo0Wp0k": {
			"height": 60,
			"title": "sequence",
			"width": 143,
			"x": 985,
			"y": -324
		},
		"BlrBQobbtHcpu76Hkw3uhOFPbPvM00i7": {
			"height": 90,
			"title": "luaCondition",
			"width": 350,
			"x": 1456,
			"y": 1614
		},
		"CnMIxGCt4MIxoH1tWiKHQj3p3UGP2RrT": {
			"height": 90,
			"title": "luaCondition",
			"width": 350,
			"x": 1447,
			"y": 1891
		},
		"FY1ULmEopHQYOakfqX8QPw2E6TzyKAAb": {
			"height": 94,
			"title": "store",
			"width": 434,
			"x": 1190,
			"y": -738
		},
		"GWsrlakFlvaVsJYrWP1kUCPBp7nMPZG3": {
			"height": 72,
			"title": "nota_sch_exam.buyUnits",
			"width": 221,
			"x": 2641,
			"y": 749
		},
		"GxsxlEmDqcUEiGe7oyfLwKsLpW66ETnj": {
			"height": 60,
			"title": "repeat",
			"width": 131,
			"x": 726,
			"y": -68
		},
		"H5SxqGSGHbpitaAGjk4otwMEWr7gFxjd": {
			"height": 90,
			"title": "luaCondition",
			"width": 350,
			"x": 1762,
			"y": 1196
		},
		"HrKnRSinuA0dGTdqRUk3v7FwOvz7m6DL": {
			"height": 94,
			"title": "store",
			"width": 469,
			"x": 1189,
			"y": -1148
		},
		"IZ00QgfNetvy09LQfmC2Ndgw9nznrnVf": {
			"height": 54,
			"title": "failure",
			"width": 131,
			"x": 2608,
			"y": 1358
		},
		"MpRwMTBDxT0HvQVUgSESREqQkiGoHYFo": {
			"height": 90,
			"title": "luaCondition",
			"width": 357,
			"x": 2151,
			"y": 968
		},
		"N4Mciq4FRRZ8RKEm09FuDFUjxwqaPBi1": {
			"height": 90,
			"title": "luaCondition",
			"width": 359,
			"x": 2133,
			"y": 718
		},
		"P6eDqiMWjljgUwtnuV9160pHn0Rteezx": {
			"height": 54,
			"title": "failure",
			"width": 131,
			"x": 2400,
			"y": 234
		},
		"PCPoGO2jI45RFFi3JLvbxA2Cbw54h8ud": {
			"height": 94,
			"title": "store",
			"width": 434,
			"x": 1192,
			"y": -250
		},
		"PK5HHrtFtYklwgTYwQAaNOiOcmS09Ljw": {
			"height": 94,
			"title": "store",
			"width": 434,
			"x": 1190,
			"y": -845
		},
		"QNLUqp5PLu9NOZegV3JYwbjL1AGiEM2U": {
			"height": 54,
			"title": "failure",
			"width": 131,
			"x": 2017,
			"y": 232
		},
		"QbQ7pTuHlrSgX9He3YwYHJj2BHA3zIsv": {
			"height": 54,
			"title": "failure",
			"width": 131,
			"x": 2427,
			"y": 450
		},
		"QrCmf4w3p1N5BLaSE3NPYheTwFakc2Va": {
			"height": 72,
			"title": "nota_sch_exam.buyUnits",
			"width": 221,
			"x": 2506,
			"y": 339
		},
		"SBXCX4pDSPUwVbDS8RBTU8Ax46qJJUrp": {
			"height": 54,
			"title": "failure",
			"width": 131,
			"x": 2640,
			"y": 692
		},
		"VdoADV8rUeIABFKeiXTcFagPo5OM4kCA": {
			"height": 54,
			"title": "failure",
			"width": 131,
			"x": 1986,
			"y": 1728
		},
		"W2zO2qBMzsMjkrhL7HsIKFZEzldcqEzO": {
			"height": 54,
			"title": "failure",
			"width": 131,
			"x": 2007,
			"y": 2072
		},
		"Wv6tjabOXV2sWFbwcoEAMfKE1rMZmuWK": {
			"height": 90,
			"title": "luaCondition",
			"width": 357,
			"x": 2210,
			"y": 1203
		},
		"Y2OveqSLLZnaJidbcy4OY7ZvLicuGX45": {
			"height": 94,
			"title": "store",
			"width": 434,
			"x": 1194,
			"y": -634
		},
		"YeResTCI0v1zLHCmR9Ekre4Da5B9U9k8": {
			"height": 54,
			"title": "failure",
			"width": 131,
			"x": 2640,
			"y": 897
		},
		"Z1YeJTd5OwnmLfarmitb5DLJdK7F47y6": {
			"height": 92,
			"title": "nota_sch_exam.buyUpgrade",
			"width": 335,
			"x": 2065,
			"y": 1887
		},
		"ZIn7xmbKoq8kivGQe0YJcD3py3weeJDK": {
			"height": 72,
			"title": "nota_sch_exam.buyUnits",
			"width": 221,
			"x": 2538,
			"y": 138
		},
		"ZQdmDG5kyJiJ3HXXg6Cp8YUQb4edtM09": {
			"height": 54,
			"title": "failure",
			"width": 131,
			"x": 2110,
			"y": 855
		},
		"a5ODsXsycXIotpgLmaYfBvJlXtf2uRAl": {
			"height": 90,
			"title": "luaCondition",
			"width": 310,
			"x": 1917,
			"y": 1557
		},
		"alRtTbiEUjsu4G24amLV9kHZV0ssBVK4": {
			"height": 90,
			"title": "luaCondition",
			"width": 309,
			"x": 2003,
			"y": 327
		},
		"awd83RxwkwL5XywuQQMlhViX2MBvBko9": {
			"height": 54,
			"title": "failure",
			"width": 131,
			"x": 2110,
			"y": 650
		},
		"d5cKJFbRWuAlEkYfPkkJVvHSNQ1CE1au": {
			"height": 94,
			"title": "store",
			"width": 434,
			"x": 1193,
			"y": -944
		},
		"dW3zJXfr6G2SGT8ZwoxUyh1PeqFW0NYT": {
			"height": 72,
			"title": "nota_sch_exam.buyUnits",
			"width": 221,
			"x": 2660,
			"y": 978
		},
		"eDsTr6avhQe8Vzr5G3WlcbZAnNMxyXLD": {
			"height": 54,
			"title": "failure",
			"width": 131,
			"x": 1909,
			"y": 464
		},
		"jPVXFiYhCpKMjR2PHnL7TvWJAxYxF1k3": {
			"height": 94,
			"title": "store",
			"width": 434,
			"x": 1183,
			"y": -539
		},
		"kSruE5aQeRYUU5we2taSun0oEnXKZk1y": {
			"height": 94,
			"title": "store",
			"width": 434,
			"x": 1185,
			"y": -347
		},
		"l75Ro5aTSyBYqpb8BfuI83FHGZyaFKaU": {
			"height": 90,
			"title": "luaCondition",
			"width": 350,
			"x": 1554,
			"y": 557
		},
		"mbsRf2eiFUm9NEMCYegcAgYkUy6HOid3": {
			"height": 72,
			"title": "nota_sch_exam.buyUnits",
			"width": 221,
			"x": 2641,
			"y": 544
		},
		"oFyD84zGeC49j1xRjLaVEgnzuu63wz69": {
			"height": 54,
			"title": "failure",
			"width": 131,
			"x": 2161,
			"y": 1393
		},
		"oOwKBnSC0IjR3Zcgdu0LhUgC7Y2oxcsd": {
			"height": 90,
			"title": "luaCondition",
			"width": 344,
			"x": 1530,
			"y": 334
		},
		"p98E2CmS326u2mRslrLL1tQ3M5lqVHtH": {
			"height": 90,
			"title": "luaCondition",
			"width": 350,
			"x": 1703,
			"y": 961
		},
		"pWVBRZ3vNKzY0hpoaBYHMMue8yX6T9W2": {
			"height": 60,
			"title": "repeat",
			"width": 131,
			"x": 707,
			"y": 2
		},
		"prG10UAOJIlNMtSkc4YemgZW9uh8JnVQ": {
			"height": 70,
			"title": "parallel",
			"width": 202,
			"x": 1099,
			"y": 498
		},
		"q24xl7diQXo0UUQzX5D2tyJEHfKPeoi5": {
			"height": 94,
			"title": "store",
			"width": 434,
			"x": 1183,
			"y": -156
		},
		"sAT47guuYaLven2VoG9XxIsBMSPoAdh5": {
			"height": 72,
			"title": "nota_sch_exam.buyUnits",
			"width": 221,
			"x": 2719,
			"y": 1213
		},
		"vfxrKqr8vfd6Eb3Bb3bp8n0LH9XKjH1W": {
			"height": 54,
			"title": "failure",
			"width": 131,
			"x": 2346,
			"y": 1713
		},
		"wcWfGYVi8jv1L5KGdH8oMVYPqmjJiHbe": {
			"height": 90,
			"title": "luaCondition",
			"width": 344,
			"x": 1562,
			"y": 135
		},
		"wsXYmdn5DE8MWwZo9nftpKTNWMpMnyi7": {
			"height": 90,
			"title": "luaCondition",
			"width": 359,
			"x": 2133,
			"y": 513
		},
		"yrBnDjLWl0Yq9J6IPYRds7BCdMGB3btw": {
			"height": 54,
			"title": "failure",
			"width": 131,
			"x": 2094,
			"y": 1143
		},
		"yvj4iElPDlwtfjRQH4vPIXN0h6nQm9an": {
			"height": 54,
			"title": "failure",
			"width": 131,
			"x": 2567,
			"y": 1112
		}
	},
	"roles": [ {
		"categories": [],
		"name": "Role 0"
	} ],
	"root": {
		"children": [ {
			"children": [ {
				"children": [ {
					"children": [],
					"id": "HrKnRSinuA0dGTdqRUk3v7FwOvz7m6DL",
					"nodeType": "luaCommand",
					"parameters": [ {
						"name": "var",
						"value": "availableMetal"
					}, {
						"name": "value",
						"value": "Spring.GetTeamResources(Spring.GetMyTeamID(), \"metal\")"
					}, {
						"name": "scriptName",
						"value": "store"
					} ],
					"scriptName": "store"
				}, {
					"children": [],
					"id": "9j9buvGTbDwZd63T4wy1najta9Tyii06",
					"nodeType": "luaCommand",
					"parameters": [ {
						"name": "var",
						"value": "myUnits"
					}, {
						"name": "value",
						"value": "Spring.GetTeamUnits(Spring.GetMyTeamID())"
					}, {
						"name": "scriptName",
						"value": "store"
					} ],
					"scriptName": "store"
				}, {
					"children": [],
					"id": "d5cKJFbRWuAlEkYfPkkJVvHSNQ1CE1au",
					"nodeType": "luaCommand",
					"parameters": [ {
						"name": "var",
						"value": "numberOfUnits"
					}, {
						"name": "value",
						"value": "nota_sch_exam.GetNumberOfUnits(myUnits)"
					}, {
						"name": "scriptName",
						"value": "store"
					} ],
					"scriptName": "store"
				}, {
					"children": [],
					"id": "PK5HHrtFtYklwgTYwQAaNOiOcmS09Ljw",
					"nodeType": "luaCommand",
					"parameters": [ {
						"name": "var",
						"value": "armseerNumber"
					}, {
						"name": "value",
						"value": "nota_sch_exam.TeamUnitCountByName(\"armseer\")"
					}, {
						"name": "scriptName",
						"value": "store"
					} ],
					"scriptName": "store"
				}, {
					"children": [],
					"id": "FY1ULmEopHQYOakfqX8QPw2E6TzyKAAb",
					"nodeType": "luaCommand",
					"parameters": [ {
						"name": "var",
						"value": "armmartNumber"
					}, {
						"name": "value",
						"value": "nota_sch_exam.TeamUnitCountByName(\"armmart\")"
					}, {
						"name": "scriptName",
						"value": "store"
					} ],
					"scriptName": "store"
				}, {
					"children": [],
					"id": "Y2OveqSLLZnaJidbcy4OY7ZvLicuGX45",
					"nodeType": "luaCommand",
					"parameters": [ {
						"name": "var",
						"value": "armmavNumber"
					}, {
						"name": "value",
						"value": "nota_sch_exam.TeamUnitCountByName(\"armmav\")"
					}, {
						"name": "scriptName",
						"value": "store"
					} ],
					"scriptName": "store"
				}, {
					"children": [],
					"id": "jPVXFiYhCpKMjR2PHnL7TvWJAxYxF1k3",
					"nodeType": "luaCommand",
					"parameters": [ {
						"name": "var",
						"value": "armfarckNumber"
					}, {
						"name": "value",
						"value": "nota_sch_exam.TeamUnitCountByName(\"armfark\")"
					}, {
						"name": "scriptName",
						"value": "store"
					} ],
					"scriptName": "store"
				}, {
					"children": [],
					"id": "3Tf7uGJHejoLzB6mXGtmbH9J2JZfNygN",
					"nodeType": "luaCommand",
					"parameters": [ {
						"name": "var",
						"value": "armzeusNumber"
					}, {
						"name": "value",
						"value": "nota_sch_exam.TeamUnitCountByName(\"armzeus\")"
					}, {
						"name": "scriptName",
						"value": "store"
					} ],
					"scriptName": "store"
				}, {
					"children": [],
					"id": "kSruE5aQeRYUU5we2taSun0oEnXKZk1y",
					"nodeType": "luaCommand",
					"parameters": [ {
						"name": "var",
						"value": "armspyNumber"
					}, {
						"name": "value",
						"value": "nota_sch_exam.TeamUnitCountByName(\"armspy\")"
					}, {
						"name": "scriptName",
						"value": "store"
					} ],
					"scriptName": "store"
				}, {
					"children": [],
					"id": "PCPoGO2jI45RFFi3JLvbxA2Cbw54h8ud",
					"nodeType": "luaCommand",
					"parameters": [ {
						"name": "var",
						"value": "armatlasNumber"
					}, {
						"name": "value",
						"value": "nota_sch_exam.TeamUnitCountByName(\"armatlas\")"
					}, {
						"name": "scriptName",
						"value": "store"
					} ],
					"scriptName": "store"
				}, {
					"children": [],
					"id": "q24xl7diQXo0UUQzX5D2tyJEHfKPeoi5",
					"nodeType": "luaCommand",
					"parameters": [ {
						"name": "var",
						"value": "armpeepNumber"
					}, {
						"name": "value",
						"value": "nota_sch_exam.TeamUnitCountByName(\"armpeep\")"
					}, {
						"name": "scriptName",
						"value": "store"
					} ],
					"scriptName": "store"
				} ],
				"id": "A6TRqDRi6CIsSPehVyxY49pXqNo0Wp0k",
				"nodeType": "sequence",
				"parameters": []
			} ],
			"id": "GxsxlEmDqcUEiGe7oyfLwKsLpW66ETnj",
			"nodeType": "repeat",
			"parameters": []
		}, {
			"children": [ {
				"children": [ {
					"children": [ {
						"children": [ {
							"children": [],
							"id": "ZIn7xmbKoq8kivGQe0YJcD3py3weeJDK",
							"nodeType": "luaCommand",
							"parameters": [ {
								"name": "unitName",
								"value": "'armseer'"
							}, {
								"name": "scriptName",
								"value": "nota_sch_exam.buyUnits"
							} ],
							"scriptName": "nota_sch_exam.buyUnits"
						}, {
							"children": [],
							"id": "P6eDqiMWjljgUwtnuV9160pHn0Rteezx",
							"nodeType": "failure",
							"parameters": []
						} ],
						"id": "75FYNYwYPu3ECZJrACyATDhQDfO8JWKl",
						"nodeType": "luaCondition",
						"parameters": [ {
							"name": "expression",
							"value": "missionInfo.buy.armseer < availableMetal"
						}, {
							"name": "repeat",
							"value": "true"
						} ]
					}, {
						"children": [],
						"id": "QNLUqp5PLu9NOZegV3JYwbjL1AGiEM2U",
						"nodeType": "failure",
						"parameters": []
					} ],
					"id": "wcWfGYVi8jv1L5KGdH8oMVYPqmjJiHbe",
					"nodeType": "luaCondition",
					"parameters": [ {
						"name": "expression",
						"value": "armseerNumber < 1"
					}, {
						"name": "repeat",
						"value": "true"
					} ]
				}, {
					"children": [ {
						"children": [ {
							"children": [],
							"id": "QrCmf4w3p1N5BLaSE3NPYheTwFakc2Va",
							"nodeType": "luaCommand",
							"parameters": [ {
								"name": "unitName",
								"value": "'armatlas'"
							}, {
								"name": "scriptName",
								"value": "nota_sch_exam.buyUnits"
							} ],
							"scriptName": "nota_sch_exam.buyUnits"
						}, {
							"children": [],
							"id": "QbQ7pTuHlrSgX9He3YwYHJj2BHA3zIsv",
							"nodeType": "failure",
							"parameters": []
						} ],
						"id": "alRtTbiEUjsu4G24amLV9kHZV0ssBVK4",
						"nodeType": "luaCondition",
						"parameters": [ {
							"name": "expression",
							"value": "missionInfo.buy.armatlas < availableMetal"
						}, {
							"name": "repeat",
							"value": "true"
						} ]
					}, {
						"children": [],
						"id": "eDsTr6avhQe8Vzr5G3WlcbZAnNMxyXLD",
						"nodeType": "failure",
						"parameters": []
					} ],
					"id": "oOwKBnSC0IjR3Zcgdu0LhUgC7Y2oxcsd",
					"nodeType": "luaCondition",
					"parameters": [ {
						"name": "expression",
						"value": "armatlasNumber < 5"
					}, {
						"name": "repeat",
						"value": "true"
					} ]
				}, {
					"children": [ {
						"children": [ {
							"children": [],
							"id": "mbsRf2eiFUm9NEMCYegcAgYkUy6HOid3",
							"nodeType": "luaCommand",
							"parameters": [ {
								"name": "unitName",
								"value": "'armpeep'"
							}, {
								"name": "scriptName",
								"value": "nota_sch_exam.buyUnits"
							} ],
							"scriptName": "nota_sch_exam.buyUnits"
						}, {
							"children": [],
							"id": "SBXCX4pDSPUwVbDS8RBTU8Ax46qJJUrp",
							"nodeType": "failure",
							"parameters": []
						} ],
						"id": "wsXYmdn5DE8MWwZo9nftpKTNWMpMnyi7",
						"nodeType": "luaCondition",
						"parameters": [ {
							"name": "expression",
							"value": "missionInfo.buy.armpeep < availableMetal"
						}, {
							"name": "repeat",
							"value": "true"
						} ]
					}, {
						"children": [],
						"id": "awd83RxwkwL5XywuQQMlhViX2MBvBko9",
						"nodeType": "failure",
						"parameters": []
					} ],
					"id": "l75Ro5aTSyBYqpb8BfuI83FHGZyaFKaU",
					"nodeType": "luaCondition",
					"parameters": [ {
						"name": "expression",
						"value": "armpeepNumber < 1"
					}, {
						"name": "repeat",
						"value": "true"
					} ]
				}, {
					"children": [ {
						"children": [ {
							"children": [],
							"id": "GWsrlakFlvaVsJYrWP1kUCPBp7nMPZG3",
							"nodeType": "luaCommand",
							"parameters": [ {
								"name": "unitName",
								"value": "'armmart'"
							}, {
								"name": "scriptName",
								"value": "nota_sch_exam.buyUnits"
							} ],
							"scriptName": "nota_sch_exam.buyUnits"
						}, {
							"children": [],
							"id": "YeResTCI0v1zLHCmR9Ekre4Da5B9U9k8",
							"nodeType": "failure",
							"parameters": []
						} ],
						"id": "N4Mciq4FRRZ8RKEm09FuDFUjxwqaPBi1",
						"nodeType": "luaCondition",
						"parameters": [ {
							"name": "expression",
							"value": "missionInfo.buy.armmart < availableMetal"
						}, {
							"name": "repeat",
							"value": "true"
						} ]
					}, {
						"children": [],
						"id": "ZQdmDG5kyJiJ3HXXg6Cp8YUQb4edtM09",
						"nodeType": "failure",
						"parameters": []
					} ],
					"id": "3HDgEm053rgClGYcPMxtlfNiQizDIoRB",
					"nodeType": "luaCondition",
					"parameters": [ {
						"name": "expression",
						"value": "armmartNumber < 10"
					}, {
						"name": "repeat",
						"value": "true"
					} ]
				}, {
					"children": [ {
						"children": [ {
							"children": [],
							"id": "sAT47guuYaLven2VoG9XxIsBMSPoAdh5",
							"nodeType": "luaCommand",
							"parameters": [ {
								"name": "unitName",
								"value": "'armmav'"
							}, {
								"name": "scriptName",
								"value": "nota_sch_exam.buyUnits"
							} ],
							"scriptName": "nota_sch_exam.buyUnits"
						}, {
							"children": [],
							"id": "IZ00QgfNetvy09LQfmC2Ndgw9nznrnVf",
							"nodeType": "failure",
							"parameters": []
						} ],
						"id": "Wv6tjabOXV2sWFbwcoEAMfKE1rMZmuWK",
						"nodeType": "luaCondition",
						"parameters": [ {
							"name": "expression",
							"value": "missionInfo.buy.armmav < availableMetal"
						}, {
							"name": "repeat",
							"value": "true"
						} ]
					}, {
						"children": [],
						"id": "oFyD84zGeC49j1xRjLaVEgnzuu63wz69",
						"nodeType": "failure",
						"parameters": []
					} ],
					"id": "H5SxqGSGHbpitaAGjk4otwMEWr7gFxjd",
					"nodeType": "luaCondition",
					"parameters": [ {
						"name": "expression",
						"value": "armmavNumber < 3"
					}, {
						"name": "repeat",
						"value": "true"
					} ]
				}, {
					"children": [ {
						"children": [ {
							"children": [],
							"id": "6QTkIJNO0B9wtjzyMP8bHabS3UilSMhE",
							"nodeType": "luaCommand",
							"parameters": [ {
								"name": "unitName",
								"value": "'armfark'"
							}, {
								"name": "scriptName",
								"value": "nota_sch_exam.buyUnits"
							} ],
							"scriptName": "nota_sch_exam.buyUnits"
						}, {
							"children": [],
							"id": "vfxrKqr8vfd6Eb3Bb3bp8n0LH9XKjH1W",
							"nodeType": "failure",
							"parameters": []
						} ],
						"id": "a5ODsXsycXIotpgLmaYfBvJlXtf2uRAl",
						"nodeType": "luaCondition",
						"parameters": [ {
							"name": "expression",
							"value": "missionInfo.buy.armfark < availableMetal"
						}, {
							"name": "repeat",
							"value": "true"
						} ]
					}, {
						"children": [],
						"id": "VdoADV8rUeIABFKeiXTcFagPo5OM4kCA",
						"nodeType": "failure",
						"parameters": []
					} ],
					"id": "BlrBQobbtHcpu76Hkw3uhOFPbPvM00i7",
					"nodeType": "luaCondition",
					"parameters": [ {
						"name": "expression",
						"value": "armmavNumber == 3 and armfarckNumber < 3"
					}, {
						"name": "repeat",
						"value": "true"
					} ]
				}, {
					"children": [ {
						"children": [],
						"id": "Z1YeJTd5OwnmLfarmitb5DLJdK7F47y6",
						"nodeType": "luaCommand",
						"parameters": [ {
							"name": "lineName",
							"value": "\"GoodMiddle\""
						}, {
							"name": "upgradeLevel",
							"value": "3"
						}, {
							"name": "scriptName",
							"value": "nota_sch_exam.buyUpgrade"
						} ],
						"scriptName": "nota_sch_exam.buyUpgrade"
					}, {
						"children": [],
						"id": "W2zO2qBMzsMjkrhL7HsIKFZEzldcqEzO",
						"nodeType": "failure",
						"parameters": []
					} ],
					"id": "CnMIxGCt4MIxoH1tWiKHQj3p3UGP2RrT",
					"nodeType": "luaCondition",
					"parameters": [ {
						"name": "expression",
						"value": "availableMetal > 900"
					}, {
						"name": "repeat",
						"value": "true"
					} ]
				} ],
				"id": "prG10UAOJIlNMtSkc4YemgZW9uh8JnVQ",
				"nodeType": "parallel",
				"parameters": [ {
					"name": "mode",
					"value": "any-success"
				} ]
			} ],
			"id": "pWVBRZ3vNKzY0hpoaBYHMMue8yX6T9W2",
			"nodeType": "repeat",
			"parameters": []
		} ],
		"id": "4dBcLvSDvFAVhtt6YSvrnZgL5AhiiJRu",
		"nodeType": "parallel",
		"parameters": [ {
			"name": "mode",
			"value": "any-success"
		} ]
	}
}